﻿
DisplayName "Ilias Temple Ruins Layer 3"



EVENT   1
 PAGE   1
  250(bytes(0x04,0x08,0x6f,0x3a,0x0c,0x52,0x50,0x47,0x3a,0x3a,0x53,0x45,0x08,0x3a,0x0a,0x40,0x6e,0x61,0x6d,0x65,0x49,0x22,0x09,0x4d,0x6f,0x76,0x65,0x06,0x3a,0x06,0x45,0x54,0x3a,0x0b,0x40,0x70,0x69,0x74,0x63,0x68,0x69,0x69,0x3a,0x0c,0x40,0x76,0x6f,0x6c,0x75,0x6d,0x65,0x69,0x55))
  TeleportPlayer(0,137,68,16,0,0)
  0()



EVENT   2
 PAGE   1
  250(bytes(0x04,0x08,0x6f,0x3a,0x0c,0x52,0x50,0x47,0x3a,0x3a,0x53,0x45,0x08,0x3a,0x0a,0x40,0x6e,0x61,0x6d,0x65,0x49,0x22,0x09,0x4d,0x6f,0x76,0x65,0x06,0x3a,0x06,0x45,0x54,0x3a,0x0b,0x40,0x70,0x69,0x74,0x63,0x68,0x69,0x69,0x3a,0x0c,0x40,0x76,0x6f,0x6c,0x75,0x6d,0x65,0x69,0x55))
  TeleportPlayer(0,137,68,17,0,0)
  0()



EVENT   3
 PAGE   1
  250(bytes(0x04,0x08,0x6f,0x3a,0x0c,0x52,0x50,0x47,0x3a,0x3a,0x53,0x45,0x08,0x3a,0x0a,0x40,0x6e,0x61,0x6d,0x65,0x49,0x22,0x09,0x4d,0x6f,0x76,0x65,0x06,0x3a,0x06,0x45,0x54,0x3a,0x0b,0x40,0x70,0x69,0x74,0x63,0x68,0x69,0x69,0x3a,0x0c,0x40,0x76,0x6f,0x6c,0x75,0x6d,0x65,0x69,0x55))
  TeleportPlayer(0,137,68,18,0,0)
  0()



EVENT   4
 PAGE   1
  250(bytes(0x04,0x08,0x6f,0x3a,0x0c,0x52,0x50,0x47,0x3a,0x3a,0x53,0x45,0x08,0x3a,0x0a,0x40,0x6e,0x61,0x6d,0x65,0x49,0x22,0x09,0x4d,0x6f,0x76,0x65,0x06,0x3a,0x06,0x45,0x54,0x3a,0x0b,0x40,0x70,0x69,0x74,0x63,0x68,0x69,0x69,0x3a,0x0c,0x40,0x76,0x6f,0x6c,0x75,0x6d,0x65,0x69,0x55))
  TeleportPlayer(0,137,68,19,0,0)
  0()



EVENT   5
 PAGE   1
  If(12,"unlock_level < 2")
   ShowMessageFace("",0,0,2,1)
   ShowMessage("The chest is locked.")
   EndEventProcessing()
   0()
  EndIf()
  250(bytes(0x04,0x08,0x6f,0x3a,0x0c,0x52,0x50,0x47,0x3a,0x3a,0x53,0x45,0x08,0x3a,0x0a,0x40,0x6e,0x61,0x6d,0x65,0x49,0x22,0x0a,0x43,0x68,0x65,0x73,0x74,0x06,0x3a,0x06,0x45,0x54,0x3a,0x0b,0x40,0x70,0x69,0x74,0x63,0x68,0x69,0x69,0x3a,0x0c,0x40,0x76,0x6f,0x6c,0x75,0x6d,0x65,0x69,0x55))
  205(0,bytes(0x04,0x08,0x6f,0x3a,0x13,0x52,0x50,0x47,0x3a,0x3a,0x4d,0x6f,0x76,0x65,0x52,0x6f,0x75,0x74,0x65,0x09,0x3a,0x0c,0x40,0x72,0x65,0x70,0x65,0x61,0x74,0x46,0x3a,0x0f,0x40,0x73,0x6b,0x69,0x70,0x70,0x61,0x62,0x6c,0x65,0x46,0x3a,0x0a,0x40,0x77,0x61,0x69,0x74,0x54,0x3a,0x0a,0x40,0x6c,0x69,0x73,0x74,0x5b,0x0b,0x6f,0x3a,0x15,0x52,0x50,0x47,0x3a,0x3a,0x4d,0x6f,0x76,0x65,0x43,0x6f,0x6d,0x6d,0x61,0x6e,0x64,0x07,0x3a,0x0a,0x40,0x63,0x6f,0x64,0x65,0x69,0x29,0x3a,0x10,0x40,0x70,0x61,0x72,0x61,0x6d,0x65,0x74,0x65,0x72,0x73,0x5b,0x00,0x6f,0x3b,0x0a,0x07,0x3b,0x0b,0x69,0x16,0x3b,0x0c,0x5b,0x00,0x6f,0x3b,0x0a,0x07,0x3b,0x0b,0x69,0x14,0x3b,0x0c,0x5b,0x06,0x69,0x08,0x6f,0x3b,0x0a,0x07,0x3b,0x0b,0x69,0x17,0x3b,0x0c,0x5b,0x00,0x6f,0x3b,0x0a,0x07,0x3b,0x0b,0x69,0x14,0x3b,0x0c,0x5b,0x06,0x69,0x08,0x6f,0x3b,0x0a,0x07,0x3b,0x0b,0x69,0x00,0x3b,0x0c,0x5b,0x00))
  ChangeSelfSwitch("A",0)
  ChangeInventoryArmor(1097,0,0,1,false)
  0()
 PAGE   2
  // condition: self-switch A is ON
  0()



EVENT   6
 PAGE   1
  If(12,"unlock_level < 3")
   ShowMessageFace("",0,0,2,1)
   ShowMessage("The chest is locked.")
   EndEventProcessing()
   0()
  EndIf()
  250(bytes(0x04,0x08,0x6f,0x3a,0x0c,0x52,0x50,0x47,0x3a,0x3a,0x53,0x45,0x08,0x3a,0x0a,0x40,0x6e,0x61,0x6d,0x65,0x49,0x22,0x0a,0x43,0x68,0x65,0x73,0x74,0x06,0x3a,0x06,0x45,0x54,0x3a,0x0b,0x40,0x70,0x69,0x74,0x63,0x68,0x69,0x69,0x3a,0x0c,0x40,0x76,0x6f,0x6c,0x75,0x6d,0x65,0x69,0x55))
  205(0,bytes(0x04,0x08,0x6f,0x3a,0x13,0x52,0x50,0x47,0x3a,0x3a,0x4d,0x6f,0x76,0x65,0x52,0x6f,0x75,0x74,0x65,0x09,0x3a,0x0c,0x40,0x72,0x65,0x70,0x65,0x61,0x74,0x46,0x3a,0x0f,0x40,0x73,0x6b,0x69,0x70,0x70,0x61,0x62,0x6c,0x65,0x46,0x3a,0x0a,0x40,0x77,0x61,0x69,0x74,0x54,0x3a,0x0a,0x40,0x6c,0x69,0x73,0x74,0x5b,0x0b,0x6f,0x3a,0x15,0x52,0x50,0x47,0x3a,0x3a,0x4d,0x6f,0x76,0x65,0x43,0x6f,0x6d,0x6d,0x61,0x6e,0x64,0x07,0x3a,0x0a,0x40,0x63,0x6f,0x64,0x65,0x69,0x29,0x3a,0x10,0x40,0x70,0x61,0x72,0x61,0x6d,0x65,0x74,0x65,0x72,0x73,0x5b,0x00,0x6f,0x3b,0x0a,0x07,0x3b,0x0b,0x69,0x16,0x3b,0x0c,0x5b,0x00,0x6f,0x3b,0x0a,0x07,0x3b,0x0b,0x69,0x14,0x3b,0x0c,0x5b,0x06,0x69,0x08,0x6f,0x3b,0x0a,0x07,0x3b,0x0b,0x69,0x17,0x3b,0x0c,0x5b,0x00,0x6f,0x3b,0x0a,0x07,0x3b,0x0b,0x69,0x14,0x3b,0x0c,0x5b,0x06,0x69,0x08,0x6f,0x3b,0x0a,0x07,0x3b,0x0b,0x69,0x00,0x3b,0x0c,0x5b,0x00))
  ChangeSelfSwitch("A",0)
  ChangeInventoryWeapon(280,0,0,1,false)
  0()
 PAGE   2
  // condition: self-switch A is ON
  0()



EVENT   7
 PAGE   1
  250(bytes(0x04,0x08,0x6f,0x3a,0x0c,0x52,0x50,0x47,0x3a,0x3a,0x53,0x45,0x08,0x3a,0x0a,0x40,0x6e,0x61,0x6d,0x65,0x49,0x22,0x0a,0x43,0x68,0x65,0x73,0x74,0x06,0x3a,0x06,0x45,0x54,0x3a,0x0b,0x40,0x70,0x69,0x74,0x63,0x68,0x69,0x69,0x3a,0x0c,0x40,0x76,0x6f,0x6c,0x75,0x6d,0x65,0x69,0x55))
  205(0,bytes(0x04,0x08,0x6f,0x3a,0x13,0x52,0x50,0x47,0x3a,0x3a,0x4d,0x6f,0x76,0x65,0x52,0x6f,0x75,0x74,0x65,0x09,0x3a,0x0c,0x40,0x72,0x65,0x70,0x65,0x61,0x74,0x46,0x3a,0x0f,0x40,0x73,0x6b,0x69,0x70,0x70,0x61,0x62,0x6c,0x65,0x46,0x3a,0x0a,0x40,0x77,0x61,0x69,0x74,0x54,0x3a,0x0a,0x40,0x6c,0x69,0x73,0x74,0x5b,0x0b,0x6f,0x3a,0x15,0x52,0x50,0x47,0x3a,0x3a,0x4d,0x6f,0x76,0x65,0x43,0x6f,0x6d,0x6d,0x61,0x6e,0x64,0x07,0x3a,0x0a,0x40,0x63,0x6f,0x64,0x65,0x69,0x29,0x3a,0x10,0x40,0x70,0x61,0x72,0x61,0x6d,0x65,0x74,0x65,0x72,0x73,0x5b,0x00,0x6f,0x3b,0x0a,0x07,0x3b,0x0b,0x69,0x16,0x3b,0x0c,0x5b,0x00,0x6f,0x3b,0x0a,0x07,0x3b,0x0b,0x69,0x14,0x3b,0x0c,0x5b,0x06,0x69,0x08,0x6f,0x3b,0x0a,0x07,0x3b,0x0b,0x69,0x17,0x3b,0x0c,0x5b,0x00,0x6f,0x3b,0x0a,0x07,0x3b,0x0b,0x69,0x14,0x3b,0x0c,0x5b,0x06,0x69,0x08,0x6f,0x3b,0x0a,0x07,0x3b,0x0b,0x69,0x00,0x3b,0x0c,0x5b,0x00))
  ChangeSelfSwitch("A",0)
  ChangeInventory_Item(32,0,0,1)
  0()
 PAGE   2
  // condition: self-switch A is ON
  0()



EVENT   8
 PAGE   1
  250(bytes(0x04,0x08,0x6f,0x3a,0x0c,0x52,0x50,0x47,0x3a,0x3a,0x53,0x45,0x08,0x3a,0x0a,0x40,0x6e,0x61,0x6d,0x65,0x49,0x22,0x0a,0x43,0x68,0x65,0x73,0x74,0x06,0x3a,0x06,0x45,0x54,0x3a,0x0b,0x40,0x70,0x69,0x74,0x63,0x68,0x69,0x69,0x3a,0x0c,0x40,0x76,0x6f,0x6c,0x75,0x6d,0x65,0x69,0x55))
  205(0,bytes(0x04,0x08,0x6f,0x3a,0x13,0x52,0x50,0x47,0x3a,0x3a,0x4d,0x6f,0x76,0x65,0x52,0x6f,0x75,0x74,0x65,0x09,0x3a,0x0c,0x40,0x72,0x65,0x70,0x65,0x61,0x74,0x46,0x3a,0x0f,0x40,0x73,0x6b,0x69,0x70,0x70,0x61,0x62,0x6c,0x65,0x46,0x3a,0x0a,0x40,0x77,0x61,0x69,0x74,0x54,0x3a,0x0a,0x40,0x6c,0x69,0x73,0x74,0x5b,0x0b,0x6f,0x3a,0x15,0x52,0x50,0x47,0x3a,0x3a,0x4d,0x6f,0x76,0x65,0x43,0x6f,0x6d,0x6d,0x61,0x6e,0x64,0x07,0x3a,0x0a,0x40,0x63,0x6f,0x64,0x65,0x69,0x29,0x3a,0x10,0x40,0x70,0x61,0x72,0x61,0x6d,0x65,0x74,0x65,0x72,0x73,0x5b,0x00,0x6f,0x3b,0x0a,0x07,0x3b,0x0b,0x69,0x16,0x3b,0x0c,0x5b,0x00,0x6f,0x3b,0x0a,0x07,0x3b,0x0b,0x69,0x14,0x3b,0x0c,0x5b,0x06,0x69,0x08,0x6f,0x3b,0x0a,0x07,0x3b,0x0b,0x69,0x17,0x3b,0x0c,0x5b,0x00,0x6f,0x3b,0x0a,0x07,0x3b,0x0b,0x69,0x14,0x3b,0x0c,0x5b,0x06,0x69,0x08,0x6f,0x3b,0x0a,0x07,0x3b,0x0b,0x69,0x00,0x3b,0x0c,0x5b,0x00))
  ChangeSelfSwitch("A",0)
  ChangeInventory_Item(28,0,0,1)
  0()
 PAGE   2
  // condition: self-switch A is ON
  0()



EVENT   9
 PAGE   1
  250(bytes(0x04,0x08,0x6f,0x3a,0x0c,0x52,0x50,0x47,0x3a,0x3a,0x53,0x45,0x08,0x3a,0x0a,0x40,0x6e,0x61,0x6d,0x65,0x49,0x22,0x0a,0x43,0x68,0x65,0x73,0x74,0x06,0x3a,0x06,0x45,0x54,0x3a,0x0b,0x40,0x70,0x69,0x74,0x63,0x68,0x69,0x69,0x3a,0x0c,0x40,0x76,0x6f,0x6c,0x75,0x6d,0x65,0x69,0x55))
  205(0,bytes(0x04,0x08,0x6f,0x3a,0x13,0x52,0x50,0x47,0x3a,0x3a,0x4d,0x6f,0x76,0x65,0x52,0x6f,0x75,0x74,0x65,0x09,0x3a,0x0c,0x40,0x72,0x65,0x70,0x65,0x61,0x74,0x46,0x3a,0x0f,0x40,0x73,0x6b,0x69,0x70,0x70,0x61,0x62,0x6c,0x65,0x46,0x3a,0x0a,0x40,0x77,0x61,0x69,0x74,0x54,0x3a,0x0a,0x40,0x6c,0x69,0x73,0x74,0x5b,0x0b,0x6f,0x3a,0x15,0x52,0x50,0x47,0x3a,0x3a,0x4d,0x6f,0x76,0x65,0x43,0x6f,0x6d,0x6d,0x61,0x6e,0x64,0x07,0x3a,0x0a,0x40,0x63,0x6f,0x64,0x65,0x69,0x29,0x3a,0x10,0x40,0x70,0x61,0x72,0x61,0x6d,0x65,0x74,0x65,0x72,0x73,0x5b,0x00,0x6f,0x3b,0x0a,0x07,0x3b,0x0b,0x69,0x16,0x3b,0x0c,0x5b,0x00,0x6f,0x3b,0x0a,0x07,0x3b,0x0b,0x69,0x14,0x3b,0x0c,0x5b,0x06,0x69,0x08,0x6f,0x3b,0x0a,0x07,0x3b,0x0b,0x69,0x17,0x3b,0x0c,0x5b,0x00,0x6f,0x3b,0x0a,0x07,0x3b,0x0b,0x69,0x14,0x3b,0x0c,0x5b,0x06,0x69,0x08,0x6f,0x3b,0x0a,0x07,0x3b,0x0b,0x69,0x00,0x3b,0x0c,0x5b,0x00))
  ChangeSelfSwitch("A",0)
  ChangeInventoryArmor(1358,0,0,1,false)
  0()
 PAGE   2
  // condition: self-switch A is ON
  0()



EVENT   10
 PAGE   1
  0()

EVENT   11
 PAGE   1
  // condition: variable 1075 >= 9
  PictureDisplay(5,"80_sirousagi_st01",0,0,0,0,100,100,255,0)
  ShowMessageFace("sirousagi_fc1",0,0,2,1)
  ShowMessage("\\n<White Rabbit>ここがラストフロアだよ。")
  ShowMessage("もう少しだけ、お話に付き合ってね。")
  If(0,4,0)
   ShowMessageFace("alice_fc5",2,0,2,2)
   ShowMessage("\\n<Alice>付き合ってやるから、さっさと話せ。")
   0()
  EndIf()
  If(0,5,0)
   ShowMessageFace("iriasu_fc4",2,0,2,3)
   ShowMessage("\\n<Ilias>付き合いましょう、早く話すのです。")
   0()
  EndIf()
  ShowMessageFace("sirousagi_fc1",0,0,2,4)
  ShowMessage("\\n<White Rabbit>じゃあお話を進めるよ……")
  ShowMessage("この世界が、正史世界から分岐した最初の世界だって言ったよね。")
  If(0,4,0)
   ShowMessageFace("alice_fc5",2,0,2,5)
   ShowMessage("\\n<Alice>ああ……いったいなぜ、正史世界は分裂した？")
   ShowMessage("その原因となったパラドックスというのは何だ？")
   0()
  EndIf()
  If(0,5,0)
   ShowMessageFace("iriasu_fc4",7,0,2,6)
   ShowMessage("\\n<Ilias>ええ……正史世界は、なぜ分裂したのです？")
   ShowMessage("原因となったパラドックスというのは、何なのですか？")
   0()
  EndIf()
  ShowMessageFace("sirousagi_fc1",0,0,2,7)
  ShowMessage("\\n<White Rabbit>パラドックスが発生し、正史世界が分裂した原因……")
  ShowMessage("それを知る前にまず、時空連続体が劣化していた事を理解しておいて。")
  ShowMessageFace("ruka_fc1",0,0,2,8)
  ShowMessage("\\n<Luka>時空連続体が……劣化？")
  ShowMessageFace("sirousagi_fc1",0,0,2,9)
  ShowMessage("\\n<White Rabbit>そう……正史世界の時間軸は、相当に劣化していたんだ。")
  ShowMessage("とある女神様が、ループを重ね過ぎちゃったせいでね。")
  ShowMessageFace("sirousagi_fc1",0,0,2,10)
  ShowMessage("\\n<White Rabbit>とある人物が死ぬたびに、世界をいちいち巻き戻し……")
  ShowMessage("短期間に数百回ものループを重ね、時間軸が傷みきってたんだよ。")
  If(0,4,0)
   ShowMessageFace("alice_fc5",2,0,2,11)
   ShowMessage("\\n<Alice>とある人物が死ぬたび、時間がループする……？")
   ShowMessage("いったい、それはどういう現象だ？")
   ShowMessageFace("sirousagi_fc1",0,0,2,12)
   ShowMessage("\\n<White Rabbit>女神イリアスの再創世計画さ。")
   ShowMessage("勇者ルカが冒険に挫折するたび、時間を巻き戻していたんだ。")
   ShowMessageFace("alice_fc5",2,0,2,13)
   ShowMessage("\\n<Alice>それは、正史世界のルカの事か？")
   ShowMessage("どうして、そんな事を……")
   ShowMessageFace("sirousagi_fc1",0,0,2,14)
   ShowMessage("\\n<White Rabbit>女神イリアスが、ルカの冒険を支援してたんだよ。")
   ShowMessage("失敗しても強引に生き返らせて、冒険を続けさせたってわけさ。")
   ShowMessageFace("alicetromeria_fc1",4,0,2,15)
   ShowMessage("\\n<Alicetroemeria>あらあら、そんな事をしていたのですね……")
   0()
  EndIf()
  If(0,5,0)
   ShowMessageFace("iriasu_fc4",5,0,2,16)
   ShowMessage("\\n<Ilias>とある人物の死によるループ……")
   ShowMessage("まさか、それは……")
   ShowMessageFace("sirousagi_fc1",0,0,2,17)
   ShowMessage("\\n<White Rabbit>そう……再創世計画の一環、反省会さ。")
   ShowMessage("勇者ルカが冒険に挫折するたび、時間を巻き戻していたんだよね？")
   0()
  EndIf()
  ShowMessageFace("sirousagi_fc1",0,0,2,18)
  ShowMessage("\\n<White Rabbit>それを何度も何度も繰り返しているうち……")
  ShowMessage("正史の時空連続体は、ボロボロに傷みきってしまったんだ。")
  If(0,5,0)
   ShowMessageFace("iriasu_fc4",2,0,2,19)
   ShowMessage("\\n<Ilias>……………………")
   0()
  EndIf()
  ShowMessageFace("sirousagi_fc1",0,0,2,20)
  ShowMessage("\\n<White Rabbit>でも、時空は自己修復できるからね。")
  ShowMessage("それだけだと、特に大きな問題はなかったんだ。")
  ShowMessageFace("sirousagi_fc1",0,0,2,21)
  ShowMessage("\\n<White Rabbit>傷んだ時空が破綻し、パラドックスが起きた最大の原因。")
  ShowMessage("それは――")
  PictureClear(5)
  Wait(60)
  250(bytes(0x04,0x08,0x6f,0x3a,0x0c,0x52,0x50,0x47,0x3a,0x3a,0x53,0x45,0x08,0x3a,0x0a,0x40,0x6e,0x61,0x6d,0x65,0x49,0x22,0x10,0x6d,0x6f,0x6e,0x5f,0x74,0x61,0x6d,0x61,0x6d,0x6f,0x32,0x06,0x3a,0x06,0x45,0x54,0x3a,0x0b,0x40,0x70,0x69,0x74,0x63,0x68,0x69,0x69,0x3a,0x0c,0x40,0x76,0x6f,0x6c,0x75,0x6d,0x65,0x69,0x55))
  205(0,bytes(0x04,0x08,0x6f,0x3a,0x13,0x52,0x50,0x47,0x3a,0x3a,0x4d,0x6f,0x76,0x65,0x52,0x6f,0x75,0x74,0x65,0x09,0x3a,0x0c,0x40,0x72,0x65,0x70,0x65,0x61,0x74,0x46,0x3a,0x0f,0x40,0x73,0x6b,0x69,0x70,0x70,0x61,0x62,0x6c,0x65,0x46,0x3a,0x0a,0x40,0x77,0x61,0x69,0x74,0x54,0x3a,0x0a,0x40,0x6c,0x69,0x73,0x74,0x5b,0x09,0x6f,0x3a,0x15,0x52,0x50,0x47,0x3a,0x3a,0x4d,0x6f,0x76,0x65,0x43,0x6f,0x6d,0x6d,0x61,0x6e,0x64,0x07,0x3a,0x0a,0x40,0x63,0x6f,0x64,0x65,0x69,0x2a,0x3a,0x10,0x40,0x70,0x61,0x72,0x61,0x6d,0x65,0x74,0x65,0x72,0x73,0x5b,0x00,0x6f,0x3b,0x0a,0x07,0x3b,0x0b,0x69,0x13,0x3b,0x0c,0x5b,0x07,0x69,0x06,0x69,0xf9,0x6f,0x3b,0x0a,0x07,0x3b,0x0b,0x69,0x15,0x3b,0x0c,0x5b,0x00,0x6f,0x3b,0x0a,0x07,0x3b,0x0b,0x69,0x00,0x3b,0x0c,0x5b,0x00))
  ShowMessageFace("sirousagi_fc1",0,0,2,22)
  ShowMessage("\\n<White Rabbit>――それは、このイリアス神殿の最奥、目と鼻の先にいるよ。")
  ShowMessage("さあ、会いに行く覚悟はできたかい？")
  ShowMessageFace("ruka_fc1",0,0,2,23)
  ShowMessage("\\n<Luka>ああ、もちろんだ！")
  ShowMessageFace("sirousagi_fc1",0,0,2,24)
  ShowMessage("\\n<White Rabbit>じゃあ行こう、いよいよ「あれ」とご対面だ。")
  250(bytes(0x04,0x08,0x6f,0x3a,0x0c,0x52,0x50,0x47,0x3a,0x3a,0x53,0x45,0x08,0x3a,0x0a,0x40,0x6e,0x61,0x6d,0x65,0x49,0x22,0x10,0x6d,0x6f,0x6e,0x5f,0x74,0x61,0x6d,0x61,0x6d,0x6f,0x32,0x06,0x3a,0x06,0x45,0x54,0x3a,0x0b,0x40,0x70,0x69,0x74,0x63,0x68,0x69,0x69,0x3a,0x0c,0x40,0x76,0x6f,0x6c,0x75,0x6d,0x65,0x69,0x55))
  205(0,bytes(0x04,0x08,0x6f,0x3a,0x13,0x52,0x50,0x47,0x3a,0x3a,0x4d,0x6f,0x76,0x65,0x52,0x6f,0x75,0x74,0x65,0x09,0x3a,0x0c,0x40,0x72,0x65,0x70,0x65,0x61,0x74,0x46,0x3a,0x0f,0x40,0x73,0x6b,0x69,0x70,0x70,0x61,0x62,0x6c,0x65,0x46,0x3a,0x0a,0x40,0x77,0x61,0x69,0x74,0x54,0x3a,0x0a,0x40,0x6c,0x69,0x73,0x74,0x5b,0x08,0x6f,0x3a,0x15,0x52,0x50,0x47,0x3a,0x3a,0x4d,0x6f,0x76,0x65,0x43,0x6f,0x6d,0x6d,0x61,0x6e,0x64,0x07,0x3a,0x0a,0x40,0x63,0x6f,0x64,0x65,0x69,0x13,0x3a,0x10,0x40,0x70,0x61,0x72,0x61,0x6d,0x65,0x74,0x65,0x72,0x73,0x5b,0x07,0x69,0x0f,0x69,0x00,0x6f,0x3b,0x0a,0x07,0x3b,0x0b,0x69,0x15,0x3b,0x0c,0x5b,0x00,0x6f,0x3b,0x0a,0x07,0x3b,0x0b,0x69,0x00,0x3b,0x0c,0x5b,0x00))
  ChangeVariable(1075,1075,0,0,10)
  0()
 PAGE   2
  // condition: variable 1075 >= 10
  0()



EVENT   12
 PAGE   1
  0()



EVENT   13
 PAGE   1
  // condition: variable 1075 >= 14
  205(22,bytes(0x04,0x08,0x6f,0x3a,0x13,0x52,0x50,0x47,0x3a,0x3a,0x4d,0x6f,0x76,0x65,0x52,0x6f,0x75,0x74,0x65,0x09,0x3a,0x0c,0x40,0x72,0x65,0x70,0x65,0x61,0x74,0x46,0x3a,0x0f,0x40,0x73,0x6b,0x69,0x70,0x70,0x61,0x62,0x6c,0x65,0x46,0x3a,0x0a,0x40,0x77,0x61,0x69,0x74,0x54,0x3a,0x0a,0x40,0x6c,0x69,0x73,0x74,0x5b,0x08,0x6f,0x3a,0x15,0x52,0x50,0x47,0x3a,0x3a,0x4d,0x6f,0x76,0x65,0x43,0x6f,0x6d,0x6d,0x61,0x6e,0x64,0x07,0x3a,0x0a,0x40,0x63,0x6f,0x64,0x65,0x69,0x16,0x3a,0x10,0x40,0x70,0x61,0x72,0x61,0x6d,0x65,0x74,0x65,0x72,0x73,0x5b,0x00,0x6f,0x3b,0x0a,0x07,0x3b,0x0b,0x69,0x2c,0x3b,0x0c,0x5b,0x00,0x6f,0x3b,0x0a,0x07,0x3b,0x0b,0x69,0x00,0x3b,0x0c,0x5b,0x00))
  222()
  Wait(60)
  212(-1,542,false)
  Wait(60)
  205(22,bytes(0x04,0x08,0x6f,0x3a,0x13,0x52,0x50,0x47,0x3a,0x3a,0x4d,0x6f,0x76,0x65,0x52,0x6f,0x75,0x74,0x65,0x09,0x3a,0x0c,0x40,0x72,0x65,0x70,0x65,0x61,0x74,0x46,0x3a,0x0f,0x40,0x73,0x6b,0x69,0x70,0x70,0x61,0x62,0x6c,0x65,0x46,0x3a,0x0a,0x40,0x77,0x61,0x69,0x74,0x54,0x3a,0x0a,0x40,0x6c,0x69,0x73,0x74,0x5b,0x07,0x6f,0x3a,0x15,0x52,0x50,0x47,0x3a,0x3a,0x4d,0x6f,0x76,0x65,0x43,0x6f,0x6d,0x6d,0x61,0x6e,0x64,0x07,0x3a,0x0a,0x40,0x63,0x6f,0x64,0x65,0x69,0x2d,0x3a,0x10,0x40,0x70,0x61,0x72,0x61,0x6d,0x65,0x74,0x65,0x72,0x73,0x5b,0x00,0x6f,0x3b,0x0a,0x07,0x3b,0x0b,0x69,0x00,0x3b,0x0c,0x5b,0x00))
  211(1)
  Wait(60)
  ShowMessageFace("sonia_fc3",7,0,2,1)
  ShowMessage("\\n<Sonya>も、戻った……")
  If(0,4,0)
   ShowMessageFace("alice_fc6",1,0,2,2)
   ShowMessage("\\n<Alice>こちらからも向こうからも、干渉できないのではなかったか！")
   0()
  EndIf()
  If(0,5,0)
   ShowMessageFace("iriasu_fc5",0,0,2,3)
   ShowMessage("\\n<Ilias>こちらからも向こうからも、干渉不可ではなかったのですか！")
   0()
  EndIf()
  205(22,bytes(0x04,0x08,0x6f,0x3a,0x13,0x52,0x50,0x47,0x3a,0x3a,0x4d,0x6f,0x76,0x65,0x52,0x6f,0x75,0x74,0x65,0x09,0x3a,0x0c,0x40,0x72,0x65,0x70,0x65,0x61,0x74,0x46,0x3a,0x0f,0x40,0x73,0x6b,0x69,0x70,0x70,0x61,0x62,0x6c,0x65,0x46,0x3a,0x0a,0x40,0x77,0x61,0x69,0x74,0x54,0x3a,0x0a,0x40,0x6c,0x69,0x73,0x74,0x5b,0x07,0x6f,0x3a,0x15,0x52,0x50,0x47,0x3a,0x3a,0x4d,0x6f,0x76,0x65,0x43,0x6f,0x6d,0x6d,0x61,0x6e,0x64,0x07,0x3a,0x0a,0x40,0x63,0x6f,0x64,0x65,0x69,0x16,0x3a,0x10,0x40,0x70,0x61,0x72,0x61,0x6d,0x65,0x74,0x65,0x72,0x73,0x5b,0x00,0x6f,0x3b,0x0a,0x07,0x3b,0x0b,0x69,0x00,0x3b,0x0c,0x5b,0x00))
  PictureDisplay(5,"80_sirousagi_st01",0,0,0,0,100,100,0,0)
  PictureMove(5,null,0,0,0,0,100,100,255,0,30,true)
  ShowMessageFace("sirousagi_fc1",0,0,2,4)
  ShowMessage("\\n<White Rabbit>まさか、時を超えた僕達さえ感知できるなんてね……")
  ShowMessage("さすがは時空間移動を経験した神、ボクも予想外だったよ。")
  PictureDisplay(6,"80_sirousagi_st01",0,0,-180,0,100,100,255,0)
  PictureDisplay(5,"80_iriasu_st04c",0,0,150,0,100,100,255,0)
  ShowMessageFace("iriasu_fc1",3,0,2,5)
  ShowMessage("\\n<Ilias>よく戻りましたね。それでは……")
  PictureClear(5)
  PictureClear(6)
  Wait(30)
  212(22,515,false)
  Wait(30)
  ChangeVariable(1075,1075,0,0,15)
  ShowMessageFace("sirousagi_fc1",2,0,2,6)
  ShowMessage("\\n<White Rabbit>ひゃ～～～～！？")
  Wait(30)
  PictureDisplay(5,"80_iriasu_st04c",0,0,0,0,100,100,0,0)
  PictureMove(5,null,0,0,0,0,100,100,255,0,30,true)
  ShowMessageFace("iriasu_fc1",3,0,2,7)
  ShowMessage("\\n<Ilias>あなたの役目は終わりました。")
  ShowMessage("では、話を続けましょう……")
  ShowMessageFace("iriasu_fc1",3,0,2,8)
  ShowMessage("\\n<Ilias>こうして、数々の並行世界が生まれました。")
  ShowMessage("まるで乱れた水面の泡のように、並行世界の数が増えていき――")
  ShowMessageFace("iriasu_fc1",3,0,2,9)
  ShowMessage("\\n<Ilias>水面が泡でいっぱいになると、それが一つずつ弾けていきます。")
  ShowMessage("増えすぎた並行世界も、互いの重みで対消滅を始めたのです。")
  If(0,4,0)
   ShowMessageFace("alice_fc5",3,0,2,10)
   ShowMessage("\\n<Alice>消滅していく並行世界……")
   ShowMessage("そのうち一つを、我々は目にしたな。")
   0()
  EndIf()
  If(0,5,0)
   ShowMessageFace("iriasu_fc4",2,0,2,11)
   ShowMessage("\\n<Ilias>消滅していく並行世界……")
   ShowMessage("その一つが消えゆく様を、私達は目にしましたね。")
   0()
  EndIf()
  ShowMessageFace("iriasu_fc1",3,0,2,12)
  ShowMessage("\\n<Ilias>その果てには、全並行世界の消滅が待っているでしょう。")
  ShowMessage("全てはカオスに飲み込まれ、完全なる無と化すのです。")
  ShowMessageFace("ruka_fc1",0,0,2,13)
  ShowMessage("\\n<Luka>そんな……なんとか破滅を防ぐ方法はないんですか！？")
  ShowMessageFace("iriasu_fc1",3,0,2,14)
  ShowMessage("\\n<Ilias>そう考えた者は、あなた達以外にもいるのです。")
  ShowMessage("……正確には、「この世界」以外にも。")
  ShowMessageFace("iriasu_fc1",3,0,2,15)
  ShowMessage("\\n<Ilias>現在の時点で、残っている並行世界は数少ないですが――")
  ShowMessage("そんな中、極めて特異な歴史を辿った並行世界が二つ存在します。")
  ShowMessageFace("iriasu_fc1",3,0,2,16)
  ShowMessage("\\n<Ilias>その二者は、他の並行世界の存在を知りました。")
  ShowMessage("そして自己の存続のため、他の並行世界への干渉を始めたのです。")
  ShowMessageFace("iriasu_fc1",3,0,2,17)
  ShowMessage("\\n<Ilias>二つの世界からの刺客達は、すでにこの世界へと潜入しています。")
  ShowMessage("黒のアリスは、それを察知していましたね……")
  If(0,4,0)
   ShowMessageFace("alice_fc5",2,0,2,18)
   ShowMessage("\\n<Alice>黒のアリスは、淫魔や天使が世界に入り込んでいると言っていた……")
   ShowMessage("例の淫魔三姉妹や、熾天使どもの事だな。")
   ShowMessageFace("alice_fc5",3,0,2,19)
   ShowMessage("\\n<Alice>やはり、奴らは別の並行世界からやって来たのか……")
   0()
  EndIf()
  If(0,5,0)
   ShowMessageFace("iriasu_fc4",7,0,2,20)
   ShowMessage("\\n<Ilias>黒のアリスは、淫魔や天使が世界に入り込んでいると言いましたね。")
   ShowMessage("それは、例の淫魔三姉妹や熾天使の事なのでしょう。")
   ShowMessageFace("iriasu_fc4",7,0,2,21)
   ShowMessage("\\n<Ilias>やはり連中は、別の並行世界からやって来たのですね……")
   0()
  EndIf()
  ShowMessageFace("ruka_fc1",0,0,2,22)
  ShowMessage("\\n<Luka>でも、彼女達も破滅を回避するために動いてるんでしょう？")
  ShowMessage("それなら、協力できるんじゃ――")
  ShowMessageFace("iriasu_fc1",3,0,2,23)
  ShowMessage("\\n<Ilias>いいえ、それは不可能です。")
  ShowMessage("なぜなら、異世界の者達は――")
  PictureClear(5)
  Wait(60)
  250(bytes(0x04,0x08,0x6f,0x3a,0x0c,0x52,0x50,0x47,0x3a,0x3a,0x53,0x45,0x08,0x3a,0x0a,0x40,0x6e,0x61,0x6d,0x65,0x49,0x22,0x0e,0x6d,0x6f,0x6e,0x5f,0x77,0x69,0x6e,0x64,0x31,0x06,0x3a,0x06,0x45,0x54,0x3a,0x0b,0x40,0x70,0x69,0x74,0x63,0x68,0x69,0x69,0x3a,0x0c,0x40,0x76,0x6f,0x6c,0x75,0x6d,0x65,0x69,0x55))
  241(bytes(0x04,0x08,0x6f,0x3a,0x0d,0x52,0x50,0x47,0x3a,0x3a,0x42,0x47,0x4d,0x08,0x3a,0x0a,0x40,0x6e,0x61,0x6d,0x65,0x49,0x22,0x0a,0x6b,0x69,0x6b,0x69,0x32,0x06,0x3a,0x06,0x45,0x54,0x3a,0x0c,0x40,0x76,0x6f,0x6c,0x75,0x6d,0x65,0x69,0x69,0x3a,0x0b,0x40,0x70,0x69,0x74,0x63,0x68,0x69,0x69))
  ChangeSwitch(31,31,0)
  212(32,1170,true)
  PictureDisplay(5,"80_iriasu_st04c",0,0,0,0,100,100,0,0)
  PictureMove(5,null,0,0,0,0,100,100,255,0,30,true)
  ShowMessageFace("iriasu_fc1",3,0,2,24)
  ShowMessage("\\n<Ilias>くっ……！")
  PictureDisplay(6,"80_lilith2_st01b",0,0,-150,0,100,100,255,0)
  PictureDisplay(5,"80_iriasu_st04c",0,0,150,0,100,100,255,0)
  ShowMessageFace("lilith2_fc1",0,0,2,25)
  ShowMessage("\\n<Lilith>……ここまでです。")
  ShowMessage("役を終えた女神は、舞台から降りて頂きましょう……")
  PictureClear(6)
  PictureDisplay(5,"80_iriasu_st04c",0,0,0,0,100,100,255,0)
  ShowMessageFace("iriasu_fc1",3,0,2,26)
  ShowMessage("\\n<Ilias>ルカ……『この世界』を救うのです……")
  250(bytes(0x04,0x08,0x6f,0x3a,0x0c,0x52,0x50,0x47,0x3a,0x3a,0x53,0x45,0x08,0x3a,0x0a,0x40,0x6e,0x61,0x6d,0x65,0x49,0x22,0x0a,0x46,0x69,0x72,0x65,0x32,0x06,0x3a,0x06,0x45,0x54,0x3a,0x0b,0x40,0x70,0x69,0x74,0x63,0x68,0x69,0x69,0x3a,0x0c,0x40,0x76,0x6f,0x6c,0x75,0x6d,0x65,0x69,0x55))
  PictureMove(5,null,0,0,0,240,100,100,0,0,60,true)
  PictureClear(5)
  ChangeVariable(1075,1075,0,0,16)
  ShowMessageFace("",0,0,2,27)
  ShowMessage("イリアスの姿が乱れ、崩れ去った！")
  ShowMessage("無数の聖素となって、消散していく――")
  ShowMessageFace("sonia_fc3",7,0,2,28)
  ShowMessage("\\n<Sonya>こんな……ダメだよ……")
  If(0,4,0)
   ShowMessageFace("alice_fc6",1,0,2,29)
   ShowMessage("\\n<Alice>リリス三姉妹！")
   ShowMessage("おのれ、話の途中だったのだぞ……！")
   0()
  EndIf()
  If(0,5,0)
   ShowMessageFace("iriasu_fc4",7,0,2,30)
   ShowMessage("\\n<Ilias>リリス……おのれ、なんという事を！")
   0()
  EndIf()
  PictureDisplay(5,"80_astaroth_st01b",0,0,0,0,100,100,0,0)
  PictureMove(5,null,0,0,0,0,100,100,255,0,30,true)
  ShowMessageFace("astaroth_fc1",0,0,2,31)
  ShowMessage("\\n<アスタロト>イリアスはすでに、カオスの中核と化していたわ。")
  ShowMessage("消去するしか、カオスの侵蝕を止める方法はないのよ。")
  PictureDisplay(5,"80_morrigan_st01b",0,0,-150,0,100,100,255,0)
  PictureDisplay(6,"80_astaroth_st01b",0,0,150,0,100,100,255,0)
  ShowMessageFace("morrigan_fc1",0,0,2,32)
  ShowMessage("\\n<Morrigan>だから、代わりにやってやったのさ！")
  ShowMessage("むしろ、感謝してほしいくらいだよな。")
  If(0,4,0)
   ShowMessageFace("alice_fc6",1,0,2,33)
   ShowMessage("\\n<Alice>ならば、代わりに話をしてもらうぞ！")
   ShowMessage("貴様達が、別の並行世界から来たのは確かなのだな！？")
   PictureClear(6)
   PictureDisplay(5,"80_lilith2_st01b",0,0,0,0,100,100,255,0)
   ShowMessageFace("lilith2_fc1",0,0,2,34)
   ShowMessage("\\n<Lilith>ええ……私達は、聖魔大戦で邪神が勝利した世界から来ました。")
   ShowMessage("邪神と六祖の手によって、女神の軛から解き放たれた世界から――")
   PictureDisplay(10,"iv_6so",0,0,0,0,100,100,0,0)
   PictureMove(10,null,0,0,0,0,100,100,255,0,60,true)
   ShowMessageFace("lilith2_fc1",0,0,2,35)
   ShowMessage("\\n<Lilith>そこは、完全なる自由の世界。")
   ShowMessage("女神イリアスのように、民を抑圧する支配者は存在しないのです。")
   ShowMessageFace("alice_fc6",0,0,2,36)
   ShowMessage("\\n<Alice>邪神が統治する世界……")
   ShowMessage("それが、特異な発展を遂げた並行世界の一つというわけだな。")
   ShowMessageFace("alicetromeria_fc1",4,0,2,37)
   ShowMessage("\\n<Alicetroemeria>それは……なんと興味深いのでしょう……")
   PictureMove(10,null,0,0,0,0,100,100,0,0,30,true)
   PictureClear(10)
   ShowMessageFace("alice_fc6",0,0,2,38)
   ShowMessage("\\n<Alice>そんな貴様達が、なぜこの世界にやってきた？")
   ShowMessage("いったい、何を企んでいるというのだ……？")
   PictureDisplay(5,"80_lilith2_st01b",0,0,-150,0,100,100,255,0)
   PictureDisplay(6,"80_morrigan_st01b",0,0,150,0,100,100,255,0)
   ShowMessageFace("morrigan_fc1",0,0,2,39)
   ShowMessage("\\n<Morrigan>企むとは、人聞きが悪いな。")
   ShowMessage("お前達を……いや、全ての世界を救ってやるためなんだぜ。")
   ShowMessageFace("alice_fc6",1,0,2,40)
   ShowMessage("\\n<Alice>これだけ世界に混乱をもたらしながら、救うだと？")
   ShowMessage("母上と組み、いったい何をする気なのだ！")
   ShowMessageFace("lilith2_fc1",0,0,2,41)
   ShowMessage("\\n<Lilith>聞くのです、アリスフィーズ16世……")
   ShowMessage("あなたの母は、決してあなたを捨てたわけではありません。")
   ShowMessageFace("morrigan_fc1",0,0,2,42)
   ShowMessage("\\n<Morrigan>むしろ、親心だよな。")
   ShowMessage("愛娘のお前に、汚れ役をやらせたくはなかったのさ。")
   ShowMessageFace("alice_fc6",0,0,2,43)
   ShowMessage("\\n<Alice>なんだと？　どういう事だ……？")
   ShowMessageFace("lilith2_fc1",0,0,2,44)
   ShowMessage("\\n<Lilith>知っての通り、全ての並行世界が消滅の危機に瀕しています。")
   ShowMessage("唯一の望みは、世界の完全合一以外にありません。")
   ShowMessageFace("ruka_fc1",0,0,2,45)
   ShowMessage("\\n<Luka>世界の完全合一？")
   ShowMessage("それはつまり、全部の並行世界を合体させるって事か？")
   ShowMessageFace("lilith2_fc1",0,0,2,46)
   ShowMessage("\\n<Lilith>まあ、そういう理解で問題はないですね。")
   ShowMessage("私達は、全ての世界の統一を成し遂げようとしているのです。")
   PictureDisplay(5,"80_morrigan_st01b",0,0,-150,0,100,100,255,0)
   PictureDisplay(6,"80_astaroth_st01b",0,0,150,0,100,100,255,0)
   ShowMessageFace("astaroth_fc1",0,0,2,47)
   ShowMessage("\\n<アスタロト>その合一には、生命エネルギーも含まれるの。")
   ShowMessage("いわゆる魂ってのを、全て私達の世界に引き込まないといけないわ。")
   ShowMessageFace("morrigan_fc1",0,0,2,48)
   ShowMessage("\\n<Morrigan>そういうわけで、肉体から魂を解き放たなきゃな。")
   ShowMessage("こっちの世界での殺戮は、そういう理由があったんだよ。")
   ShowMessageFace("alice_fc6",0,0,2,49)
   ShowMessage("\\n<Alice>この世界の魂を、お前達の世界に引き込む……？")
   ShowMessage("そんな事ができるのか？")
   PictureDisplay(5,"80_lilith2_st01b",0,0,-150,0,100,100,255,0)
   PictureDisplay(6,"80_astaroth_st01b",0,0,150,0,100,100,255,0)
   ShowMessageFace("lilith2_fc1",0,0,2,50)
   ShowMessage("\\n<Lilith>ええ……私達の主、邪神アリスフィーズ様が行っている術式によって。")
   ShowMessage("これはイリアスが編み出したものを、主が改良されたそうです。")
   ShowMessageFace("astaroth_fc1",0,0,2,51)
   ShowMessage("\\n<アスタロト>イリアスは、この還網の術式を特定個人に使用していたのだけど。")
   ShowMessage("「反省会」だなんて名前を付けて……笑える話ね。")
   PictureDisplay(6,"80_morrigan_st01b",0,0,150,0,100,100,255,0)
   ShowMessageFace("morrigan_fc1",0,0,2,52)
   ShowMessage("\\n<Morrigan>だから、魂をあたし達の世界に引き込むために死なせてたんだよ。")
   ShowMessage("ただ単に、楽しみで殺戮してるとでも思ったのか……？")
   ShowMessageFace("ruka_fc1",0,0,2,53)
   ShowMessage("\\n<Luka>楽しんでいたようにしか、見えなかったけどな……")
   ShowMessageFace("lilith2_fc1",0,0,2,54)
   ShowMessage("\\n<Lilith>ですが、無軌道な虐殺は歴史に反します。")
   ShowMessage("正史から乖離すればするほど、カオス化が進む――")
   ShowMessageFace("lilith2_fc1",0,0,2,55)
   ShowMessage("\\n<Lilith>ゆえに、計画は正史に沿わせて行う必要があったのですよ。")
   PictureDisplay(6,"80_astaroth_st01b",0,0,150,0,100,100,255,0)
   ShowMessageFace("astaroth_fc1",0,0,2,56)
   ShowMessage("\\n<アスタロト>歴史上、起こった出来事……")
   ShowMessage("もしくは、起き得たかもしれない出来事に沿ってね。")
   ShowMessageFace("alice_fc6",1,0,2,57)
   ShowMessage("\\n<Alice>だから、人間同士の戦争を引き起こしたのか……")
   ShowMessage("そんな蛮行に、母上も荷担していたというのか！？")
   PictureDisplay(6,"80_morrigan_st01b",0,0,150,0,100,100,255,0)
   ShowMessageFace("morrigan_fc1",0,0,2,58)
   ShowMessage("\\n<Morrigan>15世は理解したのさ、この手段しかないって事に。")
   ShowMessage("世界合一を行わなければ、全て消滅してしまう事に……")
   ShowMessageFace("morrigan_fc1",0,0,2,59)
   ShowMessage("\\n<Morrigan>もうひとつ、15世が理解してた事があるぜ。")
   ShowMessage("娘の現魔王、16世は納得しない――って事さ。")
   ShowMessageFace("alice_fc6",0,0,2,60)
   ShowMessage("\\n<Alice>だから、余を魔王城から放逐したのか……")
   ShowMessageFace("lilith2_fc1",0,0,2,61)
   ShowMessage("\\n<Lilith>この計画を主導する者は、世界の虐殺者となります。")
   ShowMessage("あなたには、そうなって欲しくない……それが母の願い。")
   ShowMessageFace("lilith2_fc1",0,0,2,62)
   ShowMessage("\\n<Lilith>ゆえに15世は、あなたから王座を奪ったのです。")
   ShowMessage("自分が虐殺者となる、悲壮な決意を胸に抱き……")
   ShowMessageFace("alice_fc6",0,0,2,63)
   ShowMessage("\\n<Alice>ゆえに母上は、余をこの姿に……")
   PictureDisplay(6,"80_astaroth_st01b",0,0,150,0,100,100,255,0)
   ShowMessageFace("astaroth_fc1",0,0,2,64)
   ShowMessage("\\n<アスタロト>でも、白兎はあなたを導き続けていたわね。")
   ShowMessage("正統な魔王はあなただと、導き手は認めていたのよ……")
   ShowMessageFace("alice_fc5",2,0,2,65)
   ShowMessage("\\n<Alice>世界の合一とやらについて、詳しく説明しろ。")
   ShowMessage("この世界で死んだ魂は、お前達の世界でどうなる？")
   ShowMessageFace("lilith2_fc1",0,0,2,66)
   ShowMessage("\\n<Lilith>この世界においては、死に他なりません。")
   ShowMessage("しかし魂の輪廻が、邪神様の世界において――")
   0()
  EndIf()
  If(0,5,0)
   ShowMessageFace("iriasu_fc4",7,0,2,67)
   ShowMessage("\\n<Ilias>あなた達も、並行世界から来たのですね……")
   ShowMessage("この世界で、何をしようとしているのです！")
   ShowMessageFace("morrigan_fc1",1,0,2,68)
   ShowMessage("\\n<Morrigan>誰が、そんなコトをいちいち説明――")
   PictureClear(6)
   PictureDisplay(5,"80_lilith2_st01b",0,0,0,0,100,100,255,0)
   ShowMessageFace("lilith2_fc1",0,0,2,69)
   ShowMessage("\\n<Lilith>私達は、聖魔大戦で邪神が勝利した世界から来ました。")
   ShowMessage("邪神と六祖の手によって、女神の軛から解き放たれた世界から――")
   PictureDisplay(10,"iv_6so",0,0,0,0,100,100,0,0)
   PictureMove(10,null,0,0,0,0,100,100,255,0,60,true)
   ShowMessageFace("lilith2_fc1",0,0,2,70)
   ShowMessage("\\n<Lilith>そこは、完全なる自由の世界。")
   ShowMessage("女神イリアスのように、民を抑圧する支配者は存在しないのです。")
   ShowMessageFace("iriasu_fc4",7,0,2,71)
   ShowMessage("\\n<Ilias>その代わり、邪神アリスフィーズが世界を支配しているのでしょう！")
   PictureClear(5)
   PictureMove(10,null,0,0,0,0,100,100,0,0,30,true)
   PictureClear(10)
   PictureDisplay(5,"80_lilith2_st01b",0,0,-150,0,100,100,255,0)
   PictureDisplay(6,"80_astaroth_st01b",0,0,150,0,100,100,255,0)
   ShowMessageFace("astaroth_fc1",0,0,2,72)
   ShowMessage("\\n<アスタロト>あの方は、誰をも支配しないし抑圧もしない。")
   ShowMessage("あなたのやり方とは違うのよ、女神イリアス……")
   PictureDisplay(6,"80_morrigan_st01b",0,0,150,0,100,100,255,0)
   ShowMessageFace("morrigan_fc1",0,0,2,73)
   ShowMessage("\\n<Morrigan>あたし達の世界は、完全に自由なんだ！")
   ShowMessage("お前みたいな、偏狭な神の支配から解放されたんだよ！")
   ShowMessageFace("iriasu_fc4",7,0,2,74)
   ShowMessage("\\n<Ilias>邪神が統治する世界……")
   ShowMessage("それが、特異な発展を遂げた並行世界の一つというわけですね。")
   ShowMessageFace("ruka_fc1",0,0,2,75)
   ShowMessage("\\n<Luka>それがなぜ、僕達の世界で虐殺や陰謀を……？")
   ShowMessage("挙げ句の果てに、大国を操って戦争を起こして……！")
   ShowMessageFace("lilith2_fc1",0,0,2,76)
   ShowMessage("\\n<Lilith>それも、「この世界」も含めた全ての世界を救うため。")
   ShowMessage("あらゆる魂を肉体から解き放ち、我々の世界に合一させるのです。")
   ShowMessageFace("iriasu_fc4",2,0,2,77)
   ShowMessage("\\n<Ilias>まさか、そんな……！")
   ShowMessage("そうか、還網の魔術を使って……全ての魂を……")
   ShowMessageFace("iriasu_fc4",7,0,2,78)
   ShowMessage("\\n<Ilias>なんと、大それた……そして、恐ろしい事を！")
   ShowMessage("あなた達のやろうとしている事は、全生命を愚弄する行為！")
   PictureDisplay(6,"80_astaroth_st01b",0,0,150,0,100,100,255,0)
   ShowMessageFace("astaroth_fc1",0,0,2,79)
   ShowMessage("\\n<アスタロト>……ならば！")
   ShowMessage("女神イリアスならば、どう破滅を回避しようというの？")
   PictureDisplay(6,"80_morrigan_st01b",0,0,150,0,100,100,255,0)
   ShowMessageFace("morrigan_fc1",0,0,2,80)
   ShowMessage("\\n<Morrigan>教えてくれよ、女神サマ！")
   ShowMessage("こんな状況で、他にどういう手段があるってんだ！")
   ShowMessageFace("iriasu_fc4",2,0,2,81)
   ShowMessage("\\n<Ilias>……………………")
   ShowMessageFace("iriasu_fc4",7,0,2,82)
   ShowMessage("\\n<Ilias>いえ……必ず何か、手立てはあるはず……")
   ShowMessageFace("ruka_fc1",0,0,2,83)
   ShowMessage("\\n<Luka>どういう事なんです、イリアス様……")
   ShowMessageFace("iriasu_fc4",7,0,2,84)
   ShowMessage("\\n<Ilias>知る必要はありません。")
   ShowMessage("あの者達のやろうとしている、おぞましい事など……")
   ShowMessageFace("lilith2_fc1",0,0,2,85)
   ShowMessage("\\n<Lilith>女神イリアス……あなたも察したでしょう。")
   ShowMessage("もはや、これ以外に皆を救う手段などないのです。")
   PictureDisplay(6,"80_astaroth_st01b",0,0,150,0,100,100,255,0)
   ShowMessageFace("astaroth_fc1",0,0,2,86)
   ShowMessage("\\n<アスタロト>勇者ルカ、あなたならば正しい判断を――")
   0()
  EndIf()
  PictureDisplay(5,"80_lilith2_st03b",0,0,-150,0,100,100,255,0)
  PictureDisplay(6,"80_morrigan_st03b",0,0,150,0,100,100,255,0)
  ShowMessageFace("morrigan_fc1",2,0,2,87)
  ShowMessage("\\n<Morrigan>……おい、姉貴。")
  ShowMessage("おしゃべりしてる場合じゃなくなってきたぞ。")
  ShowMessageFace("lilith2_fc1",2,0,2,88)
  ShowMessage("\\n<Lilith>……ええ、分かっています。")
  ShowMessage("アスタロト、モリガン！")
  PictureClear(5)
  PictureClear(6)
  250(bytes(0x04,0x08,0x6f,0x3a,0x0c,0x52,0x50,0x47,0x3a,0x3a,0x53,0x45,0x08,0x3a,0x0a,0x40,0x6e,0x61,0x6d,0x65,0x49,0x22,0x0e,0x6d,0x6f,0x6e,0x5f,0x77,0x69,0x6e,0x64,0x31,0x06,0x3a,0x06,0x45,0x54,0x3a,0x0b,0x40,0x70,0x69,0x74,0x63,0x68,0x69,0x69,0x3a,0x0c,0x40,0x76,0x6f,0x6c,0x75,0x6d,0x65,0x69,0x55))
  205(15,bytes(0x04,0x08,0x6f,0x3a,0x13,0x52,0x50,0x47,0x3a,0x3a,0x4d,0x6f,0x76,0x65,0x52,0x6f,0x75,0x74,0x65,0x09,0x3a,0x0c,0x40,0x72,0x65,0x70,0x65,0x61,0x74,0x46,0x3a,0x0f,0x40,0x73,0x6b,0x69,0x70,0x70,0x61,0x62,0x6c,0x65,0x46,0x3a,0x0a,0x40,0x77,0x61,0x69,0x74,0x46,0x3a,0x0a,0x40,0x6c,0x69,0x73,0x74,0x5b,0x08,0x6f,0x3a,0x15,0x52,0x50,0x47,0x3a,0x3a,0x4d,0x6f,0x76,0x65,0x43,0x6f,0x6d,0x6d,0x61,0x6e,0x64,0x07,0x3a,0x0a,0x40,0x63,0x6f,0x64,0x65,0x69,0x13,0x3a,0x10,0x40,0x70,0x61,0x72,0x61,0x6d,0x65,0x74,0x65,0x72,0x73,0x5b,0x07,0x69,0xfa,0x69,0x00,0x6f,0x3b,0x0a,0x07,0x3b,0x0b,0x69,0x17,0x3b,0x0c,0x5b,0x00,0x6f,0x3b,0x0a,0x07,0x3b,0x0b,0x69,0x00,0x3b,0x0c,0x5b,0x00))
  205(16,bytes(0x04,0x08,0x6f,0x3a,0x13,0x52,0x50,0x47,0x3a,0x3a,0x4d,0x6f,0x76,0x65,0x52,0x6f,0x75,0x74,0x65,0x09,0x3a,0x0c,0x40,0x72,0x65,0x70,0x65,0x61,0x74,0x46,0x3a,0x0f,0x40,0x73,0x6b,0x69,0x70,0x70,0x61,0x62,0x6c,0x65,0x46,0x3a,0x0a,0x40,0x77,0x61,0x69,0x74,0x46,0x3a,0x0a,0x40,0x6c,0x69,0x73,0x74,0x5b,0x08,0x6f,0x3a,0x15,0x52,0x50,0x47,0x3a,0x3a,0x4d,0x6f,0x76,0x65,0x43,0x6f,0x6d,0x6d,0x61,0x6e,0x64,0x07,0x3a,0x0a,0x40,0x63,0x6f,0x64,0x65,0x69,0x13,0x3a,0x10,0x40,0x70,0x61,0x72,0x61,0x6d,0x65,0x74,0x65,0x72,0x73,0x5b,0x07,0x69,0xf8,0x69,0x00,0x6f,0x3b,0x0a,0x07,0x3b,0x0b,0x69,0x17,0x3b,0x0c,0x5b,0x00,0x6f,0x3b,0x0a,0x07,0x3b,0x0b,0x69,0x00,0x3b,0x0c,0x5b,0x00))
  205(14,bytes(0x04,0x08,0x6f,0x3a,0x13,0x52,0x50,0x47,0x3a,0x3a,0x4d,0x6f,0x76,0x65,0x52,0x6f,0x75,0x74,0x65,0x09,0x3a,0x0c,0x40,0x72,0x65,0x70,0x65,0x61,0x74,0x46,0x3a,0x0f,0x40,0x73,0x6b,0x69,0x70,0x70,0x61,0x62,0x6c,0x65,0x46,0x3a,0x0a,0x40,0x77,0x61,0x69,0x74,0x46,0x3a,0x0a,0x40,0x6c,0x69,0x73,0x74,0x5b,0x08,0x6f,0x3a,0x15,0x52,0x50,0x47,0x3a,0x3a,0x4d,0x6f,0x76,0x65,0x43,0x6f,0x6d,0x6d,0x61,0x6e,0x64,0x07,0x3a,0x0a,0x40,0x63,0x6f,0x64,0x65,0x69,0x13,0x3a,0x10,0x40,0x70,0x61,0x72,0x61,0x6d,0x65,0x74,0x65,0x72,0x73,0x5b,0x07,0x69,0xfa,0x69,0x07,0x6f,0x3b,0x0a,0x07,0x3b,0x0b,0x69,0x17,0x3b,0x0c,0x5b,0x00,0x6f,0x3b,0x0a,0x07,0x3b,0x0b,0x69,0x00,0x3b,0x0c,0x5b,0x00))
  If(0,4,0)
   ShowMessageFace("alice_fc6",0,0,2,89)
   ShowMessage("\\n<Alice>聖なる力が接近してくる……これは、天使か！？")
   0()
  EndIf()
  If(0,5,0)
   ShowMessageFace("iriasu_fc4",2,0,2,90)
   ShowMessage("\\n<Ilias>これは……聖なる力が、近付いて……")
   0()
  EndIf()
  212(17,501,false)
  Wait(30)
  ChangeSwitch(32,32,0)
  212(18,501,false)
  Wait(30)
  ChangeSwitch(33,33,0)
  212(19,501,false)
  Wait(30)
  ChangeSwitch(34,34,0)
  241(bytes(0x04,0x08,0x6f,0x3a,0x0d,0x52,0x50,0x47,0x3a,0x3a,0x42,0x47,0x4d,0x08,0x3a,0x0a,0x40,0x6e,0x61,0x6d,0x65,0x49,0x22,0x0e,0x62,0x6f,0x73,0x73,0x5f,0x65,0x64,0x65,0x6e,0x06,0x3a,0x06,0x45,0x54,0x3a,0x0c,0x40,0x76,0x6f,0x6c,0x75,0x6d,0x65,0x69,0x69,0x3a,0x0b,0x40,0x70,0x69,0x74,0x63,0x68,0x69,0x69))
  Wait(60)
  PictureDisplay(5,"80_eden_st35",0,0,0,0,100,100,0,0)
  PictureMove(5,null,0,0,0,0,100,100,255,0,30,true)
  ShowMessageFace("eden_fc2",4,0,2,91)
  ShowMessage("\\n<Eden>汚らわしい邪神の徒……")
  ShowMessage("我等がここで討ち果たします！")
  PictureDisplay(5,"80_shion_st01",0,0,-150,0,100,100,255,0)
  PictureDisplay(6,"80_gnosis_st05",0,0,150,0,100,100,255,0)
  ShowMessageFace("shion_fc1",0,0,2,92)
  ShowMessage("\\n<シオン>久しぶりだな、淫魔ども……")
  ShowMessage("ここで片付けてやるぜ。")
  ShowMessageFace("gnosis_fc1",4,0,2,93)
  ShowMessage("\\n<グノーシス>滅ぼす、滅ぼす、滅ぼす……")
  ShowMessage("邪神の手先、一人漏らさず討ち果たす……")
  If(0,4,0)
   ShowMessageFace("alice_fc6",0,0,2,94)
   ShowMessage("\\n<Alice>エデン……貴様は、雪のほこらにいたはずでは？")
   ShowMessage("いや、別の並行世界から来たエデンか！")
   PictureClear(6)
   PictureDisplay(5,"80_eden_st31",0,0,0,0,100,100,255,0)
   ShowMessageFace("eden_fc2",0,0,2,95)
   ShowMessage("\\n<Eden>ええ、その通り……")
   ShowMessage("私達は、偉大なる女神イリアス様が統治する世界から来ました。")
   ShowMessageFace("sonia_fc3",7,0,2,96)
   ShowMessage("\\n<Sonya>ダメだよ……こんなの……")
   0()
  EndIf()
  If(0,5,0)
   ShowMessageFace("eden_fc1",2,0,2,97)
   ShowMessage("\\n<Eden>そんな、馬鹿な……！")
   ShowMessage("私がもう一人！？")
   ShowMessageFace("sonia_fc3",7,0,2,98)
   ShowMessage("\\n<Sonya>ダメだよ……こんなの……")
   ShowMessageFace("iriasu_fc4",7,0,2,99)
   ShowMessage("\\n<Ilias>あれは、別世界のエデン……")
   ShowMessage("あなた達は、女神が聖魔大戦で勝利した世界から来たのですね！？")
   ShowMessageFace("eden_fc2",0,0,2,100)
   ShowMessage("\\n<Eden>ええ、お言葉の通りです……")
   ShowMessage("私達は、偉大なる女神イリアス様が統治する世界から参りました。")
   0()
  EndIf()
  PictureDisplay(7,"iv_7angel",0,0,0,0,100,100,0,0)
  PictureMove(7,null,0,0,0,0,100,100,255,0,30,true)
  ShowMessageFace("eden_fc2",0,0,2,101)
  ShowMessage("\\n<Eden>邪神は完全に駆逐され、世界は七大天使の元に治められています。")
  ShowMessage("全ての民より、イリアス様を称える声の止むことはない楽園なのです。")
  ShowMessageFace("ruka_fc1",0,0,2,102)
  ShowMessage("\\n<Luka>じゃあ、以前に僕がエスタで見た光景は――")
  PictureClear(5)
  PictureClear(6)
  PictureMove(7,null,0,0,0,0,100,100,0,0,30,true)
  PictureClear(7)
  PictureDisplay(5,"80_shion_st01",0,0,-150,0,100,100,255,0)
  PictureDisplay(6,"80_gnosis_st05",0,0,150,0,100,100,255,0)
  If(0,4,0)
   ShowMessageFace("gnosis_fc1",3,0,2,103)
   ShowMessage("\\n<グノーシス>あの時の攻撃は、我が過ち……")
   ShowMessage("ラファエラ様に招待された事実を知らなかった。")
   PictureClear(6)
   PictureDisplay(5,"80_eden_st31",0,0,0,0,100,100,255,0)
   ShowMessageFace("eden_fc2",0,0,2,104)
   ShowMessage("\\n<Eden>ともかく、今はあなた達に構っている暇はありません。")
   ShowMessage("目の前の邪神の徒、チリさえ残さず滅ぼさなければなりませんので。")
   0()
  EndIf()
  If(0,5,0)
   ShowMessageFace("shion_fc1",0,0,2,105)
   ShowMessage("\\n<シオン>ああ、あの時は済まなかったな。")
   ShowMessage("ラファエラ様に招待されたって、後から聞いたんだぜ。")
   PictureClear(6)
   PictureDisplay(5,"80_eden_st31",0,0,0,0,100,100,255,0)
   ShowMessageFace("eden_fc2",0,0,2,106)
   ShowMessage("\\n<Eden>……イリアス様、少しお時間を頂きます。")
   ShowMessage("邪神の徒、チリさえ残さず討ち果たしますので。")
   0()
  EndIf()
  PictureDisplay(5,"80_eden_st31",0,0,-150,0,100,100,255,0)
  PictureDisplay(6,"80_lilith2_st01b",0,0,150,0,100,100,255,0)
  ShowMessageFace("lilith2_fc1",0,0,2,107)
  ShowMessage("\\n<Lilith>それは、こちらの言葉です。")
  ShowMessage("女神イリアスのしもべ達……いま、ここで果ててもらいましょう。")
  PictureClear(6)
  PictureDisplay(5,"iv_succu_vs_angel2",0,0,0,0,100,100,255,0)
  ShowMessageFace("shion_fc1",1,0,2,108)
  ShowMessage("\\n<シオン>面白くなってきたな！")
  ShowMessage("お前達全員、バラバラにしてやるぜ！")
  ShowMessageFace("astaroth_fc1",0,0,2,109)
  ShowMessage("\\n<アスタロト>さあ、天使狩りの時間ね……")
  ShowMessageFace("gnosis_fc1",6,0,2,110)
  ShowMessage("\\n<グノーシス>消去する……消去、消去、消去消去消去……")
  ShowMessageFace("morrigan_fc1",0,0,2,111)
  ShowMessage("\\n<Morrigan>イリアス神殿の廃墟……お前達の墓場に最適じゃないか。")
  ShowMessage("三匹とも、ここに埋葬してやるよ！")
  PictureDisplay(5,"iv_succu_vs_angel1",0,0,0,0,100,100,255,0)
  ShowMessageFace("eden_fc2",4,0,2,112)
  ShowMessage("\\n<Eden>行きますよ、シオン！　グノーシス！")
  ShowMessage("いざ、イリアス様のために！")
  ShowMessageFace("lilith2_fc1",0,0,2,113)
  ShowMessage("\\n<Lilith>続きなさい、アスタロト！　モリガン！")
  PictureDisplay(5,"iv_succu_vs_angel2",0,0,0,0,100,100,255,0)
  212(-1,1171,false)
  Wait(30)
  ShowMessageFace("",0,0,2,114)
  ShowMessage("リリス三姉妹と熾天使達が真っ向から激突する！")
  ShowMessage("戦闘の余波は、旋風となって周囲に吹き荒れた！")
  Wait(60)
  ShowMessageFace("sonia_fc3",7,0,2,115)
  ShowMessage("\\n<Sonya>ダメ……やめて……")
  If(0,4,0)
   ShowMessageFace("alice_fc6",0,0,2,116)
   ShowMessage("\\n<Alice>これでは、手の出しようがないぞ……")
   0()
  EndIf()
  If(0,5,0)
   ShowMessageFace("iriasu_fc4",7,0,2,117)
   ShowMessage("\\n<Ilias>これでは、手の出しようがない……")
   0()
  EndIf()
  ShowMessageFace("ruka_fc1",0,0,2,118)
  ShowMessage("\\n<Luka>なんて力なんだ……")
  ShowMessage("こんな連中が、僕達の世界で激突するなんて……")
  ShowMessageFace("",0,0,2,119)
  ShowMessage("聖魔大戦で女神が勝利した世界と、邪神が勝利した世界。")
  ShowMessage("その両方から来た刺客が、ここで激突しているのだ――")
  PictureClear(5)
  ChangeSwitch(35,35,0)
  Wait(30)
  205(35,bytes(0x04,0x08,0x6f,0x3a,0x13,0x52,0x50,0x47,0x3a,0x3a,0x4d,0x6f,0x76,0x65,0x52,0x6f,0x75,0x74,0x65,0x09,0x3a,0x0c,0x40,0x72,0x65,0x70,0x65,0x61,0x74,0x46,0x3a,0x0f,0x40,0x73,0x6b,0x69,0x70,0x70,0x61,0x62,0x6c,0x65,0x46,0x3a,0x0a,0x40,0x77,0x61,0x69,0x74,0x54,0x3a,0x0a,0x40,0x6c,0x69,0x73,0x74,0x5b,0x08,0x6f,0x3a,0x15,0x52,0x50,0x47,0x3a,0x3a,0x4d,0x6f,0x76,0x65,0x43,0x6f,0x6d,0x6d,0x61,0x6e,0x64,0x07,0x3a,0x0a,0x40,0x63,0x6f,0x64,0x65,0x69,0x09,0x3a,0x10,0x40,0x70,0x61,0x72,0x61,0x6d,0x65,0x74,0x65,0x72,0x73,0x5b,0x00,0x6f,0x3b,0x0a,0x07,0x3b,0x0b,0x69,0x09,0x3b,0x0c,0x5b,0x00,0x6f,0x3b,0x0a,0x07,0x3b,0x0b,0x69,0x00,0x3b,0x0c,0x5b,0x00))
  ShowMessageFace("sonia_fc3",7,0,2,120)
  ShowMessage("\\n<Sonya>言ってるでしょ、ダメだって……")
  ShowMessage("こんな戦い、やめて……")
  If(0,4,0)
   205(19,bytes(0x04,0x08,0x6f,0x3a,0x13,0x52,0x50,0x47,0x3a,0x3a,0x4d,0x6f,0x76,0x65,0x52,0x6f,0x75,0x74,0x65,0x09,0x3a,0x0c,0x40,0x72,0x65,0x70,0x65,0x61,0x74,0x46,0x3a,0x0f,0x40,0x73,0x6b,0x69,0x70,0x70,0x61,0x62,0x6c,0x65,0x46,0x3a,0x0a,0x40,0x77,0x61,0x69,0x74,0x54,0x3a,0x0a,0x40,0x6c,0x69,0x73,0x74,0x5b,0x08,0x6f,0x3a,0x15,0x52,0x50,0x47,0x3a,0x3a,0x4d,0x6f,0x76,0x65,0x43,0x6f,0x6d,0x6d,0x61,0x6e,0x64,0x07,0x3a,0x0a,0x40,0x63,0x6f,0x64,0x65,0x69,0x13,0x3a,0x10,0x40,0x70,0x61,0x72,0x61,0x6d,0x65,0x74,0x65,0x72,0x73,0x5b,0x07,0x69,0xf9,0x69,0x07,0x6f,0x3b,0x0a,0x07,0x3b,0x0b,0x69,0x16,0x3b,0x0c,0x5b,0x00,0x6f,0x3b,0x0a,0x07,0x3b,0x0b,0x69,0x00,0x3b,0x0c,0x5b,0x00))
   205(14,bytes(0x04,0x08,0x6f,0x3a,0x13,0x52,0x50,0x47,0x3a,0x3a,0x4d,0x6f,0x76,0x65,0x52,0x6f,0x75,0x74,0x65,0x09,0x3a,0x0c,0x40,0x72,0x65,0x70,0x65,0x61,0x74,0x46,0x3a,0x0f,0x40,0x73,0x6b,0x69,0x70,0x70,0x61,0x62,0x6c,0x65,0x46,0x3a,0x0a,0x40,0x77,0x61,0x69,0x74,0x54,0x3a,0x0a,0x40,0x6c,0x69,0x73,0x74,0x5b,0x07,0x6f,0x3a,0x15,0x52,0x50,0x47,0x3a,0x3a,0x4d,0x6f,0x76,0x65,0x43,0x6f,0x6d,0x6d,0x61,0x6e,0x64,0x07,0x3a,0x0a,0x40,0x63,0x6f,0x64,0x65,0x69,0x15,0x3a,0x10,0x40,0x70,0x61,0x72,0x61,0x6d,0x65,0x74,0x65,0x72,0x73,0x5b,0x00,0x6f,0x3b,0x0a,0x07,0x3b,0x0b,0x69,0x00,0x3b,0x0c,0x5b,0x00))
   ShowMessageFace("gnosis_fc1",3,0,2,121)
   ShowMessage("\\n<グノーシス>妙なる言葉よ……")
   ShowMessage("駄目、駄目と、いったい何を却下している？")
   0()
  EndIf()
  If(0,5,0)
   205(14,bytes(0x04,0x08,0x6f,0x3a,0x13,0x52,0x50,0x47,0x3a,0x3a,0x4d,0x6f,0x76,0x65,0x52,0x6f,0x75,0x74,0x65,0x09,0x3a,0x0c,0x40,0x72,0x65,0x70,0x65,0x61,0x74,0x46,0x3a,0x0f,0x40,0x73,0x6b,0x69,0x70,0x70,0x61,0x62,0x6c,0x65,0x46,0x3a,0x0a,0x40,0x77,0x61,0x69,0x74,0x54,0x3a,0x0a,0x40,0x6c,0x69,0x73,0x74,0x5b,0x08,0x6f,0x3a,0x15,0x52,0x50,0x47,0x3a,0x3a,0x4d,0x6f,0x76,0x65,0x43,0x6f,0x6d,0x6d,0x61,0x6e,0x64,0x07,0x3a,0x0a,0x40,0x63,0x6f,0x64,0x65,0x69,0x13,0x3a,0x10,0x40,0x70,0x61,0x72,0x61,0x6d,0x65,0x74,0x65,0x72,0x73,0x5b,0x07,0x69,0x06,0x69,0x07,0x6f,0x3b,0x0a,0x07,0x3b,0x0b,0x69,0x17,0x3b,0x0c,0x5b,0x00,0x6f,0x3b,0x0a,0x07,0x3b,0x0b,0x69,0x00,0x3b,0x0c,0x5b,0x00))
   205(19,bytes(0x04,0x08,0x6f,0x3a,0x13,0x52,0x50,0x47,0x3a,0x3a,0x4d,0x6f,0x76,0x65,0x52,0x6f,0x75,0x74,0x65,0x09,0x3a,0x0c,0x40,0x72,0x65,0x70,0x65,0x61,0x74,0x46,0x3a,0x0f,0x40,0x73,0x6b,0x69,0x70,0x70,0x61,0x62,0x6c,0x65,0x46,0x3a,0x0a,0x40,0x77,0x61,0x69,0x74,0x54,0x3a,0x0a,0x40,0x6c,0x69,0x73,0x74,0x5b,0x07,0x6f,0x3a,0x15,0x52,0x50,0x47,0x3a,0x3a,0x4d,0x6f,0x76,0x65,0x43,0x6f,0x6d,0x6d,0x61,0x6e,0x64,0x07,0x3a,0x0a,0x40,0x63,0x6f,0x64,0x65,0x69,0x15,0x3a,0x10,0x40,0x70,0x61,0x72,0x61,0x6d,0x65,0x74,0x65,0x72,0x73,0x5b,0x00,0x6f,0x3b,0x0a,0x07,0x3b,0x0b,0x69,0x00,0x3b,0x0c,0x5b,0x00))
   ShowMessageFace("morrigan_fc1",0,0,2,122)
   ShowMessage("\\n<Morrigan>さっきからお前、何を言ってんだ？")
   ShowMessage("ダメダメって、何がダメ――")
   0()
  EndIf()
  PictureDisplay(5,"80_sonia_m1_st24",0,0,0,0,100,100,0,0)
  PictureMove(5,null,0,0,0,0,100,100,255,0,30,true)
  ShowMessageFace("sonia_fc3",7,0,2,123)
  ShowMessage("\\n<Sonya>だって、こんなの……")
  205(15,bytes(0x04,0x08,0x6f,0x3a,0x13,0x52,0x50,0x47,0x3a,0x3a,0x4d,0x6f,0x76,0x65,0x52,0x6f,0x75,0x74,0x65,0x09,0x3a,0x0c,0x40,0x72,0x65,0x70,0x65,0x61,0x74,0x46,0x3a,0x0f,0x40,0x73,0x6b,0x69,0x70,0x70,0x61,0x62,0x6c,0x65,0x46,0x3a,0x0a,0x40,0x77,0x61,0x69,0x74,0x46,0x3a,0x0a,0x40,0x6c,0x69,0x73,0x74,0x5b,0x07,0x6f,0x3a,0x15,0x52,0x50,0x47,0x3a,0x3a,0x4d,0x6f,0x76,0x65,0x43,0x6f,0x6d,0x6d,0x61,0x6e,0x64,0x07,0x3a,0x0a,0x40,0x63,0x6f,0x64,0x65,0x69,0x15,0x3a,0x10,0x40,0x70,0x61,0x72,0x61,0x6d,0x65,0x74,0x65,0x72,0x73,0x5b,0x00,0x6f,0x3b,0x0a,0x07,0x3b,0x0b,0x69,0x00,0x3b,0x0c,0x5b,0x00))
  205(16,bytes(0x04,0x08,0x6f,0x3a,0x13,0x52,0x50,0x47,0x3a,0x3a,0x4d,0x6f,0x76,0x65,0x52,0x6f,0x75,0x74,0x65,0x09,0x3a,0x0c,0x40,0x72,0x65,0x70,0x65,0x61,0x74,0x46,0x3a,0x0f,0x40,0x73,0x6b,0x69,0x70,0x70,0x61,0x62,0x6c,0x65,0x46,0x3a,0x0a,0x40,0x77,0x61,0x69,0x74,0x46,0x3a,0x0a,0x40,0x6c,0x69,0x73,0x74,0x5b,0x07,0x6f,0x3a,0x15,0x52,0x50,0x47,0x3a,0x3a,0x4d,0x6f,0x76,0x65,0x43,0x6f,0x6d,0x6d,0x61,0x6e,0x64,0x07,0x3a,0x0a,0x40,0x63,0x6f,0x64,0x65,0x69,0x15,0x3a,0x10,0x40,0x70,0x61,0x72,0x61,0x6d,0x65,0x74,0x65,0x72,0x73,0x5b,0x00,0x6f,0x3b,0x0a,0x07,0x3b,0x0b,0x69,0x00,0x3b,0x0c,0x5b,0x00))
  205(17,bytes(0x04,0x08,0x6f,0x3a,0x13,0x52,0x50,0x47,0x3a,0x3a,0x4d,0x6f,0x76,0x65,0x52,0x6f,0x75,0x74,0x65,0x09,0x3a,0x0c,0x40,0x72,0x65,0x70,0x65,0x61,0x74,0x46,0x3a,0x0f,0x40,0x73,0x6b,0x69,0x70,0x70,0x61,0x62,0x6c,0x65,0x46,0x3a,0x0a,0x40,0x77,0x61,0x69,0x74,0x46,0x3a,0x0a,0x40,0x6c,0x69,0x73,0x74,0x5b,0x07,0x6f,0x3a,0x15,0x52,0x50,0x47,0x3a,0x3a,0x4d,0x6f,0x76,0x65,0x43,0x6f,0x6d,0x6d,0x61,0x6e,0x64,0x07,0x3a,0x0a,0x40,0x63,0x6f,0x64,0x65,0x69,0x15,0x3a,0x10,0x40,0x70,0x61,0x72,0x61,0x6d,0x65,0x74,0x65,0x72,0x73,0x5b,0x00,0x6f,0x3b,0x0a,0x07,0x3b,0x0b,0x69,0x00,0x3b,0x0c,0x5b,0x00))
  205(18,bytes(0x04,0x08,0x6f,0x3a,0x13,0x52,0x50,0x47,0x3a,0x3a,0x4d,0x6f,0x76,0x65,0x52,0x6f,0x75,0x74,0x65,0x09,0x3a,0x0c,0x40,0x72,0x65,0x70,0x65,0x61,0x74,0x46,0x3a,0x0f,0x40,0x73,0x6b,0x69,0x70,0x70,0x61,0x62,0x6c,0x65,0x46,0x3a,0x0a,0x40,0x77,0x61,0x69,0x74,0x46,0x3a,0x0a,0x40,0x6c,0x69,0x73,0x74,0x5b,0x07,0x6f,0x3a,0x15,0x52,0x50,0x47,0x3a,0x3a,0x4d,0x6f,0x76,0x65,0x43,0x6f,0x6d,0x6d,0x61,0x6e,0x64,0x07,0x3a,0x0a,0x40,0x63,0x6f,0x64,0x65,0x69,0x15,0x3a,0x10,0x40,0x70,0x61,0x72,0x61,0x6d,0x65,0x74,0x65,0x72,0x73,0x5b,0x00,0x6f,0x3b,0x0a,0x07,0x3b,0x0b,0x69,0x00,0x3b,0x0c,0x5b,0x00))
  241(bytes(0x04,0x08,0x6f,0x3a,0x0d,0x52,0x50,0x47,0x3a,0x3a,0x42,0x47,0x4d,0x08,0x3a,0x0a,0x40,0x6e,0x61,0x6d,0x65,0x49,0x22,0x11,0x73,0x63,0x65,0x6e,0x65,0x5f,0x73,0x6f,0x6e,0x69,0x61,0x31,0x06,0x3a,0x06,0x45,0x54,0x3a,0x0c,0x40,0x76,0x6f,0x6c,0x75,0x6d,0x65,0x69,0x69,0x3a,0x0b,0x40,0x70,0x69,0x74,0x63,0x68,0x69,0x69))
  PictureDisplay(5,"80_sonia_m1_st07",0,0,0,0,100,100,255,0)
  ShowMessageFace("sonia_fc1",6,0,2,124)
  ShowMessage("\\n<Sonya>――第三種断界遭遇に相当。")
  ShowMessage("並行世界から来た者同士の戦闘行為を禁ずる。")
  If(0,4,0)
   ShowMessageFace("gnosis_fc1",4,0,2,125)
   ShowMessage("\\n<グノーシス>なんだと……！？")
   0()
  EndIf()
  If(0,5,0)
   ShowMessageFace("morrigan_fc1",2,0,2,126)
   ShowMessage("\\n<Morrigan>な……んだとっ！？")
   0()
  EndIf()
  ShowMessageFace("ruka_fc1",0,0,2,127)
  ShowMessage("\\n<Luka>ソニア、いったい何を言って……")
  ShowMessageFace("lilith2_fc1",2,0,2,128)
  ShowMessage("\\n<Lilith>まさか――")
  ShowMessageFace("eden_fc2",5,0,2,129)
  ShowMessage("\\n<Eden>まずい、これは――！")
  ShowMessageFace("sonia_fc1",6,0,2,130)
  ShowMessage("\\n<Sonya>F00001におけるF02767断界者とF00793断界者との戦闘行為を禁ずる。")
  ShowMessage("阻止行動開始、アポトーシスXX00002起動――")
  ShowMessageFace("astaroth_fc1",2,0,2,131)
  ShowMessage("\\n<アスタロト>XX型アポトーシス……あの時の最上位種！")
  ShowMessage("まさか、勇者のパーティに混じっていたなんて――")
  250(bytes(0x04,0x08,0x6f,0x3a,0x0c,0x52,0x50,0x47,0x3a,0x3a,0x53,0x45,0x08,0x3a,0x0a,0x40,0x6e,0x61,0x6d,0x65,0x49,0x22,0x0e,0x44,0x61,0x72,0x6b,0x6e,0x65,0x73,0x73,0x31,0x06,0x3a,0x06,0x45,0x54,0x3a,0x0b,0x40,0x70,0x69,0x74,0x63,0x68,0x69,0x69,0x3a,0x0c,0x40,0x76,0x6f,0x6c,0x75,0x6d,0x65,0x69,0x55))
  PictureDisplay(10,"sys_noise",0,0,0,0,100,100,0,0)
  PictureMove(10,null,0,0,0,0,100,100,255,0,60,true)
  Wait(30)
  ChangeSwitch(36,36,0)
  PictureDisplay(5,"80_soniaapoto_m1_st27",0,0,0,0,100,100,255,0)
  PictureMove(10,null,0,0,0,0,100,100,0,0,60,true)
  PictureClear(10)
  ShowMessageFace("soniaapoto_fc4",2,0,2,132)
  ShowMessage("\\n<Sonya>対応■■消■、すなわち即■■■■■――")
  ShowMessage("■■■■■■天■■■■■を禁■■■■■！！")
  If(0,4,0)
   ShowMessageFace("eden_fc2",4,0,2,133)
   ShowMessage("\\n<Eden>グノーシス！　離れるのです！")
   ShowMessageFace("gnosis_fc1",4,0,2,134)
   ShowMessage("\\n<グノーシス>くっ……！")
   0()
  EndIf()
  If(0,5,0)
   ShowMessageFace("lilith2_fc1",2,0,2,135)
   ShowMessage("\\n<Lilith>……モリガン！　離れなさい！")
   ShowMessageFace("morrigan_fc1",2,0,2,136)
   ShowMessage("\\n<Morrigan>くっ……！")
   0()
  EndIf()
  PictureClear(5)
  ShowMessageFace("soniaapoto_fc4",2,0,2,137)
  ShowMessage("\\n<Sonya>■が■■■■――")
  If(0,4,0)
   205(35,bytes(0x04,0x08,0x6f,0x3a,0x13,0x52,0x50,0x47,0x3a,0x3a,0x4d,0x6f,0x76,0x65,0x52,0x6f,0x75,0x74,0x65,0x09,0x3a,0x0c,0x40,0x72,0x65,0x70,0x65,0x61,0x74,0x46,0x3a,0x0f,0x40,0x73,0x6b,0x69,0x70,0x70,0x61,0x62,0x6c,0x65,0x46,0x3a,0x0a,0x40,0x77,0x61,0x69,0x74,0x54,0x3a,0x0a,0x40,0x6c,0x69,0x73,0x74,0x5b,0x07,0x6f,0x3a,0x15,0x52,0x50,0x47,0x3a,0x3a,0x4d,0x6f,0x76,0x65,0x43,0x6f,0x6d,0x6d,0x61,0x6e,0x64,0x07,0x3a,0x0a,0x40,0x63,0x6f,0x64,0x65,0x69,0x17,0x3a,0x10,0x40,0x70,0x61,0x72,0x61,0x6d,0x65,0x74,0x65,0x72,0x73,0x5b,0x00,0x6f,0x3b,0x0a,0x07,0x3b,0x0b,0x69,0x00,0x3b,0x0c,0x5b,0x00))
   ShowMessageFace("",0,0,2,138)
   ShowMessage("ソニアは飛び退こうとするグノーシスの腕を掴んだ！")
   ShowMessageFace("gnosis_fc1",5,0,2,139)
   ShowMessage("\\n<グノーシス>離せ、離せ……離せ……！")
   0()
  EndIf()
  If(0,5,0)
   205(35,bytes(0x04,0x08,0x6f,0x3a,0x13,0x52,0x50,0x47,0x3a,0x3a,0x4d,0x6f,0x76,0x65,0x52,0x6f,0x75,0x74,0x65,0x09,0x3a,0x0c,0x40,0x72,0x65,0x70,0x65,0x61,0x74,0x46,0x3a,0x0f,0x40,0x73,0x6b,0x69,0x70,0x70,0x61,0x62,0x6c,0x65,0x46,0x3a,0x0a,0x40,0x77,0x61,0x69,0x74,0x54,0x3a,0x0a,0x40,0x6c,0x69,0x73,0x74,0x5b,0x07,0x6f,0x3a,0x15,0x52,0x50,0x47,0x3a,0x3a,0x4d,0x6f,0x76,0x65,0x43,0x6f,0x6d,0x6d,0x61,0x6e,0x64,0x07,0x3a,0x0a,0x40,0x63,0x6f,0x64,0x65,0x69,0x16,0x3a,0x10,0x40,0x70,0x61,0x72,0x61,0x6d,0x65,0x74,0x65,0x72,0x73,0x5b,0x00,0x6f,0x3b,0x0a,0x07,0x3b,0x0b,0x69,0x00,0x3b,0x0c,0x5b,0x00))
   ShowMessageFace("",0,0,2,140)
   ShowMessage("ソニアは飛び退こうとするモリガンの腕を掴んだ！")
   ShowMessageFace("morrigan_fc1",2,0,2,141)
   ShowMessage("\\n<Morrigan>離せ……！　おぉぉぉっ……！！")
   0()
  EndIf()
  250(bytes(0x04,0x08,0x6f,0x3a,0x0c,0x52,0x50,0x47,0x3a,0x3a,0x53,0x45,0x08,0x3a,0x0a,0x40,0x6e,0x61,0x6d,0x65,0x49,0x22,0x0e,0x44,0x61,0x72,0x6b,0x6e,0x65,0x73,0x73,0x33,0x06,0x3a,0x06,0x45,0x54,0x3a,0x0b,0x40,0x70,0x69,0x74,0x63,0x68,0x69,0x69,0x3a,0x0c,0x40,0x76,0x6f,0x6c,0x75,0x6d,0x65,0x69,0x55))
  ShowMessageFace("soniaapoto_fc4",3,0,2,142)
  ShowMessage("\\n<Sonya>■■■■■■――")
  If(0,4,0)
   ShowMessageFace("shion_fc1",2,0,2,143)
   ShowMessage("\\n<シオン>やべぇ！　侵蝕されるぞ！！")
   ShowMessageFace("gnosis_fc1",2,0,2,144)
   ShowMessage("\\n<グノーシス>そうはさせん……ボディ、切除。")
   250(bytes(0x04,0x08,0x6f,0x3a,0x0c,0x52,0x50,0x47,0x3a,0x3a,0x53,0x45,0x08,0x3a,0x0a,0x40,0x6e,0x61,0x6d,0x65,0x49,0x22,0x0f,0x6d,0x6f,0x6e,0x5f,0x73,0x6c,0x61,0x73,0x68,0x33,0x06,0x3a,0x06,0x45,0x54,0x3a,0x0b,0x40,0x70,0x69,0x74,0x63,0x68,0x69,0x69,0x3a,0x0c,0x40,0x76,0x6f,0x6c,0x75,0x6d,0x65,0x69,0x69))
   ShowMessageFace("",0,0,2,145)
   ShowMessage("グノーシスは自身の上腕を焼き切った！")
   205(19,bytes(0x04,0x08,0x6f,0x3a,0x13,0x52,0x50,0x47,0x3a,0x3a,0x4d,0x6f,0x76,0x65,0x52,0x6f,0x75,0x74,0x65,0x09,0x3a,0x0c,0x40,0x72,0x65,0x70,0x65,0x61,0x74,0x46,0x3a,0x0f,0x40,0x73,0x6b,0x69,0x70,0x70,0x61,0x62,0x6c,0x65,0x46,0x3a,0x0a,0x40,0x77,0x61,0x69,0x74,0x54,0x3a,0x0a,0x40,0x6c,0x69,0x73,0x74,0x5b,0x08,0x6f,0x3a,0x15,0x52,0x50,0x47,0x3a,0x3a,0x4d,0x6f,0x76,0x65,0x43,0x6f,0x6d,0x6d,0x61,0x6e,0x64,0x07,0x3a,0x0a,0x40,0x63,0x6f,0x64,0x65,0x69,0x13,0x3a,0x10,0x40,0x70,0x61,0x72,0x61,0x6d,0x65,0x74,0x65,0x72,0x73,0x5b,0x07,0x69,0x07,0x69,0xf9,0x6f,0x3b,0x0a,0x07,0x3b,0x0b,0x69,0x15,0x3b,0x0c,0x5b,0x00,0x6f,0x3b,0x0a,0x07,0x3b,0x0b,0x69,0x00,0x3b,0x0c,0x5b,0x00))
   ShowMessageFace("gnosis_fc1",3,0,2,146)
   ShowMessage("\\n<グノーシス>くっ……")
   ShowMessageFace("shion_fc1",2,0,2,147)
   ShowMessage("\\n<シオン>グノーシス！　大丈夫なのかよ！")
   ShowMessageFace("gnosis_fc1",3,0,2,148)
   ShowMessage("\\n<グノーシス>損害は軽微……")
   ShowMessage("だが、エナジーを半分以上奪われて……")
   0()
  EndIf()
  If(0,5,0)
   ShowMessageFace("astaroth_fc1",2,0,2,149)
   ShowMessage("\\n<アスタロト>まずい！　侵蝕されるわ！！")
   ShowMessageFace("morrigan_fc1",2,0,2,150)
   ShowMessage("\\n<Morrigan>させるかよッ……！")
   250(bytes(0x04,0x08,0x6f,0x3a,0x0c,0x52,0x50,0x47,0x3a,0x3a,0x53,0x45,0x08,0x3a,0x0a,0x40,0x6e,0x61,0x6d,0x65,0x49,0x22,0x0f,0x6d,0x6f,0x6e,0x5f,0x73,0x6c,0x61,0x73,0x68,0x33,0x06,0x3a,0x06,0x45,0x54,0x3a,0x0b,0x40,0x70,0x69,0x74,0x63,0x68,0x69,0x69,0x3a,0x0c,0x40,0x76,0x6f,0x6c,0x75,0x6d,0x65,0x69,0x69))
   ShowMessageFace("",0,0,2,151)
   ShowMessage("モリガンは手刀で自身の腕を切り離した！")
   205(14,bytes(0x04,0x08,0x6f,0x3a,0x13,0x52,0x50,0x47,0x3a,0x3a,0x4d,0x6f,0x76,0x65,0x52,0x6f,0x75,0x74,0x65,0x09,0x3a,0x0c,0x40,0x72,0x65,0x70,0x65,0x61,0x74,0x46,0x3a,0x0f,0x40,0x73,0x6b,0x69,0x70,0x70,0x61,0x62,0x6c,0x65,0x46,0x3a,0x0a,0x40,0x77,0x61,0x69,0x74,0x54,0x3a,0x0a,0x40,0x6c,0x69,0x73,0x74,0x5b,0x08,0x6f,0x3a,0x15,0x52,0x50,0x47,0x3a,0x3a,0x4d,0x6f,0x76,0x65,0x43,0x6f,0x6d,0x6d,0x61,0x6e,0x64,0x07,0x3a,0x0a,0x40,0x63,0x6f,0x64,0x65,0x69,0x13,0x3a,0x10,0x40,0x70,0x61,0x72,0x61,0x6d,0x65,0x74,0x65,0x72,0x73,0x5b,0x07,0x69,0xfa,0x69,0xf9,0x6f,0x3b,0x0a,0x07,0x3b,0x0b,0x69,0x15,0x3b,0x0c,0x5b,0x00,0x6f,0x3b,0x0a,0x07,0x3b,0x0b,0x69,0x00,0x3b,0x0c,0x5b,0x00))
   ShowMessageFace("morrigan_fc1",2,0,2,152)
   ShowMessage("\\n<Morrigan>ぐぅっ……")
   ShowMessageFace("astaroth_fc1",2,0,2,153)
   ShowMessage("\\n<アスタロト>モリガン、大丈夫！？")
   ShowMessageFace("morrigan_fc1",2,0,2,154)
   ShowMessage("\\n<Morrigan>これくらい、すぐ生えてくる……")
   ShowMessage("でも、悪い……エナジーを相当奪われちまった……")
   0()
  EndIf()
  PictureDisplay(5,"80_soniaapoto_m3_st04",0,0,0,0,100,100,0,0)
  PictureMove(5,null,0,0,0,0,100,100,255,0,30,true)
  ShowMessageFace("soniaapoto_fc4",1,0,2,155)
  ShowMessage("\\n<Sonya>■■■■■■……！！")
  If(0,4,0)
   250(bytes(0x04,0x08,0x6f,0x3a,0x0c,0x52,0x50,0x47,0x3a,0x3a,0x53,0x45,0x08,0x3a,0x0a,0x40,0x6e,0x61,0x6d,0x65,0x49,0x22,0x0b,0x53,0x61,0x69,0x6e,0x74,0x38,0x06,0x3a,0x06,0x45,0x54,0x3a,0x0b,0x40,0x70,0x69,0x74,0x63,0x68,0x69,0x69,0x3a,0x0c,0x40,0x76,0x6f,0x6c,0x75,0x6d,0x65,0x69,0x55))
   ShowMessageFace("",0,0,2,156)
   ShowMessage("ソニアはグノーシスの腕を吸収した！")
   ShowMessage("その体が、荘厳な威圧感を放つ！")
   ShowMessageFace("lilith2_fc1",2,0,2,157)
   ShowMessage("\\n<Lilith>天使の力を取り込んでしまいましたか……")
   ShowMessage("まずい事態ですね……")
   0()
  EndIf()
  If(0,5,0)
   250(bytes(0x04,0x08,0x6f,0x3a,0x0c,0x52,0x50,0x47,0x3a,0x3a,0x53,0x45,0x08,0x3a,0x0a,0x40,0x6e,0x61,0x6d,0x65,0x49,0x22,0x0e,0x44,0x61,0x72,0x6b,0x6e,0x65,0x73,0x73,0x33,0x06,0x3a,0x06,0x45,0x54,0x3a,0x0b,0x40,0x70,0x69,0x74,0x63,0x68,0x69,0x69,0x3a,0x0c,0x40,0x76,0x6f,0x6c,0x75,0x6d,0x65,0x69,0x55))
   ShowMessageFace("",0,0,2,158)
   ShowMessage("ソニアはモリガンの腕を吸収した！")
   ShowMessage("その体が、妖しく変貌を始める！")
   ShowMessageFace("eden_fc2",3,0,2,159)
   ShowMessage("\\n<Eden>妖魔の力を取り込んでしまった……")
   ShowMessage("これは、まずいですね……")
   0()
  EndIf()
  Wait(15)
  250(bytes(0x04,0x08,0x6f,0x3a,0x0c,0x52,0x50,0x47,0x3a,0x3a,0x53,0x45,0x08,0x3a,0x0a,0x40,0x6e,0x61,0x6d,0x65,0x49,0x22,0x0d,0x6d,0x6f,0x6e,0x5f,0x62,0x6f,0x6d,0x31,0x06,0x3a,0x06,0x45,0x54,0x3a,0x0b,0x40,0x70,0x69,0x74,0x63,0x68,0x69,0x69,0x3a,0x0c,0x40,0x76,0x6f,0x6c,0x75,0x6d,0x65,0x69,0x69))
  225(7,7,150,true)
  PictureDisplay(10,"sys_noise",0,0,0,0,100,100,0,0)
  PictureMove(10,null,0,0,0,0,100,100,255,0,60,true)
  Wait(30)
  ChangeSwitch(1525,1525,1)
  ChangePartyMember(525,1,0)
  If(0,4,0)
   PictureDisplay(5,"80_soniamazda_st01",0,0,0,0,100,100,255,0)
   ChangeSwitch(37,37,0)
   PictureMove(10,null,0,0,0,0,100,100,0,0,60,true)
   PictureClear(10)
   241(bytes(0x04,0x08,0x6f,0x3a,0x0d,0x52,0x50,0x47,0x3a,0x3a,0x42,0x47,0x4d,0x08,0x3a,0x0a,0x40,0x6e,0x61,0x6d,0x65,0x49,0x22,0x11,0x73,0x63,0x65,0x6e,0x65,0x5f,0x73,0x6f,0x6e,0x69,0x61,0x33,0x06,0x3a,0x06,0x45,0x54,0x3a,0x0c,0x40,0x76,0x6f,0x6c,0x75,0x6d,0x65,0x69,0x69,0x3a,0x0b,0x40,0x70,0x69,0x74,0x63,0x68,0x69,0x69))
   ShowMessageFace("soniamazda_fc1",0,0,2,160)
   ShowMessage("\\n<ソニアマズダ>聖な■■■■■■の■■■……")
   ShowMessage("さ■■■■■■■■■■■■……")
   PictureClear(5)
   ShowMessageFace("ruka_fc1",0,0,2,161)
   ShowMessage("\\n<Luka>そんな、ソニア……")
   ShowMessageFace("alice_fc6",0,0,2,162)
   ShowMessage("\\n<Alice>まさか、ソニアがアポトーシスだったとは……")
   PictureDisplay(5,"80_lilith2_st03b",0,0,0,0,100,100,0,0)
   PictureMove(5,null,0,0,0,0,100,100,255,0,30,true)
   ShowMessageFace("lilith2_fc1",2,0,2,163)
   ShowMessage("\\n<Lilith>天使の力を得た最上位アポトーシス……止めますよ！")
   PictureDisplay(5,"80_eden_st35",0,0,-150,0,100,100,255,0)
   PictureDisplay(6,"80_lilith2_st03b",0,0,150,0,100,100,255,0)
   205(14,bytes(0x04,0x08,0x6f,0x3a,0x13,0x52,0x50,0x47,0x3a,0x3a,0x4d,0x6f,0x76,0x65,0x52,0x6f,0x75,0x74,0x65,0x09,0x3a,0x0c,0x40,0x72,0x65,0x70,0x65,0x61,0x74,0x46,0x3a,0x0f,0x40,0x73,0x6b,0x69,0x70,0x70,0x61,0x62,0x6c,0x65,0x46,0x3a,0x0a,0x40,0x77,0x61,0x69,0x74,0x46,0x3a,0x0a,0x40,0x6c,0x69,0x73,0x74,0x5b,0x07,0x6f,0x3a,0x15,0x52,0x50,0x47,0x3a,0x3a,0x4d,0x6f,0x76,0x65,0x43,0x6f,0x6d,0x6d,0x61,0x6e,0x64,0x07,0x3a,0x0a,0x40,0x63,0x6f,0x64,0x65,0x69,0x17,0x3a,0x10,0x40,0x70,0x61,0x72,0x61,0x6d,0x65,0x74,0x65,0x72,0x73,0x5b,0x00,0x6f,0x3b,0x0a,0x07,0x3b,0x0b,0x69,0x00,0x3b,0x0c,0x5b,0x00))
   205(15,bytes(0x04,0x08,0x6f,0x3a,0x13,0x52,0x50,0x47,0x3a,0x3a,0x4d,0x6f,0x76,0x65,0x52,0x6f,0x75,0x74,0x65,0x09,0x3a,0x0c,0x40,0x72,0x65,0x70,0x65,0x61,0x74,0x46,0x3a,0x0f,0x40,0x73,0x6b,0x69,0x70,0x70,0x61,0x62,0x6c,0x65,0x46,0x3a,0x0a,0x40,0x77,0x61,0x69,0x74,0x46,0x3a,0x0a,0x40,0x6c,0x69,0x73,0x74,0x5b,0x07,0x6f,0x3a,0x15,0x52,0x50,0x47,0x3a,0x3a,0x4d,0x6f,0x76,0x65,0x43,0x6f,0x6d,0x6d,0x61,0x6e,0x64,0x07,0x3a,0x0a,0x40,0x63,0x6f,0x64,0x65,0x69,0x17,0x3a,0x10,0x40,0x70,0x61,0x72,0x61,0x6d,0x65,0x74,0x65,0x72,0x73,0x5b,0x00,0x6f,0x3b,0x0a,0x07,0x3b,0x0b,0x69,0x00,0x3b,0x0c,0x5b,0x00))
   205(16,bytes(0x04,0x08,0x6f,0x3a,0x13,0x52,0x50,0x47,0x3a,0x3a,0x4d,0x6f,0x76,0x65,0x52,0x6f,0x75,0x74,0x65,0x09,0x3a,0x0c,0x40,0x72,0x65,0x70,0x65,0x61,0x74,0x46,0x3a,0x0f,0x40,0x73,0x6b,0x69,0x70,0x70,0x61,0x62,0x6c,0x65,0x46,0x3a,0x0a,0x40,0x77,0x61,0x69,0x74,0x46,0x3a,0x0a,0x40,0x6c,0x69,0x73,0x74,0x5b,0x07,0x6f,0x3a,0x15,0x52,0x50,0x47,0x3a,0x3a,0x4d,0x6f,0x76,0x65,0x43,0x6f,0x6d,0x6d,0x61,0x6e,0x64,0x07,0x3a,0x0a,0x40,0x63,0x6f,0x64,0x65,0x69,0x17,0x3a,0x10,0x40,0x70,0x61,0x72,0x61,0x6d,0x65,0x74,0x65,0x72,0x73,0x5b,0x00,0x6f,0x3b,0x0a,0x07,0x3b,0x0b,0x69,0x00,0x3b,0x0c,0x5b,0x00))
   205(17,bytes(0x04,0x08,0x6f,0x3a,0x13,0x52,0x50,0x47,0x3a,0x3a,0x4d,0x6f,0x76,0x65,0x52,0x6f,0x75,0x74,0x65,0x09,0x3a,0x0c,0x40,0x72,0x65,0x70,0x65,0x61,0x74,0x46,0x3a,0x0f,0x40,0x73,0x6b,0x69,0x70,0x70,0x61,0x62,0x6c,0x65,0x46,0x3a,0x0a,0x40,0x77,0x61,0x69,0x74,0x46,0x3a,0x0a,0x40,0x6c,0x69,0x73,0x74,0x5b,0x07,0x6f,0x3a,0x15,0x52,0x50,0x47,0x3a,0x3a,0x4d,0x6f,0x76,0x65,0x43,0x6f,0x6d,0x6d,0x61,0x6e,0x64,0x07,0x3a,0x0a,0x40,0x63,0x6f,0x64,0x65,0x69,0x16,0x3a,0x10,0x40,0x70,0x61,0x72,0x61,0x6d,0x65,0x74,0x65,0x72,0x73,0x5b,0x00,0x6f,0x3b,0x0a,0x07,0x3b,0x0b,0x69,0x00,0x3b,0x0c,0x5b,0x00))
   205(18,bytes(0x04,0x08,0x6f,0x3a,0x13,0x52,0x50,0x47,0x3a,0x3a,0x4d,0x6f,0x76,0x65,0x52,0x6f,0x75,0x74,0x65,0x09,0x3a,0x0c,0x40,0x72,0x65,0x70,0x65,0x61,0x74,0x46,0x3a,0x0f,0x40,0x73,0x6b,0x69,0x70,0x70,0x61,0x62,0x6c,0x65,0x46,0x3a,0x0a,0x40,0x77,0x61,0x69,0x74,0x46,0x3a,0x0a,0x40,0x6c,0x69,0x73,0x74,0x5b,0x07,0x6f,0x3a,0x15,0x52,0x50,0x47,0x3a,0x3a,0x4d,0x6f,0x76,0x65,0x43,0x6f,0x6d,0x6d,0x61,0x6e,0x64,0x07,0x3a,0x0a,0x40,0x63,0x6f,0x64,0x65,0x69,0x16,0x3a,0x10,0x40,0x70,0x61,0x72,0x61,0x6d,0x65,0x74,0x65,0x72,0x73,0x5b,0x00,0x6f,0x3b,0x0a,0x07,0x3b,0x0b,0x69,0x00,0x3b,0x0c,0x5b,0x00))
   205(19,bytes(0x04,0x08,0x6f,0x3a,0x13,0x52,0x50,0x47,0x3a,0x3a,0x4d,0x6f,0x76,0x65,0x52,0x6f,0x75,0x74,0x65,0x09,0x3a,0x0c,0x40,0x72,0x65,0x70,0x65,0x61,0x74,0x46,0x3a,0x0f,0x40,0x73,0x6b,0x69,0x70,0x70,0x61,0x62,0x6c,0x65,0x46,0x3a,0x0a,0x40,0x77,0x61,0x69,0x74,0x46,0x3a,0x0a,0x40,0x6c,0x69,0x73,0x74,0x5b,0x07,0x6f,0x3a,0x15,0x52,0x50,0x47,0x3a,0x3a,0x4d,0x6f,0x76,0x65,0x43,0x6f,0x6d,0x6d,0x61,0x6e,0x64,0x07,0x3a,0x0a,0x40,0x63,0x6f,0x64,0x65,0x69,0x16,0x3a,0x10,0x40,0x70,0x61,0x72,0x61,0x6d,0x65,0x74,0x65,0x72,0x73,0x5b,0x00,0x6f,0x3b,0x0a,0x07,0x3b,0x0b,0x69,0x00,0x3b,0x0c,0x5b,0x00))
   ShowMessageFace("eden_fc2",4,0,2,164)
   ShowMessage("\\n<Eden>おっと、ここは行かせません……！")
   ShowMessageFace("morrigan_fc1",2,0,2,165)
   ShowMessage("\\n<Morrigan>ちっ……邪魔なんだよォ！")
   PictureClear(6)
   PictureDisplay(5,"80_soniamazda_st01",0,0,0,0,100,100,0,0)
   PictureMove(5,null,0,0,0,0,100,100,255,0,30,true)
   ShowMessageFace("soniamazda_fc1",0,0,2,166)
   ShowMessage("\\n<ソニアマズダ>み■■■■■■■天■■■■……")
   ShowMessage("これ■■■■■■■■■■■■給■■……")
   ShowMessageFace("ruka_fc1",0,0,2,167)
   ShowMessage("\\n<Luka>ソニア、正気を取り戻してくれ！")
   ShowMessage("僕達は――")
   ShowMessageFace("alice_fc6",1,0,2,168)
   ShowMessage("\\n<Alice>無駄だルカ、こちらの言葉は届いていない！")
   ShowMessage("武器を取らねば、こちらがやられるぞ！")
   ShowMessageFace("ruka_fc1",0,0,2,169)
   ShowMessage("\\n<Luka>だからって、ソニアを倒すなんて……！")
   If(4,520,0)
    ShowMessageFace("lazarus3_fc1",0,0,2,170)
    ShowMessage("\\n<Lazarus>頭を冷やせ、ルカ……")
    ShowMessage("まずソニアを止める、次にソニアを元に戻す、の順番だ。")
    ShowMessageFace("lazarus3_fc1",0,0,2,171)
    ShowMessage("\\n<Lazarus>ここであいつを止めなきゃ、元に戻してやれねぇ……")
    ShowMessage("……分かるよな？")
    0()
   Else()
    ShowMessageFace("alice_fc6",1,0,2,172)
    ShowMessage("\\n<Alice>とりあえず止めねば、元に戻す事もできんだろうが！")
    0()
   EndIf()
   ShowMessageFace("ruka_fc1",0,0,2,173)
   ShowMessage("\\n<Luka>分かった、ソニアを元に戻すために――")
   ShowMessage("みんな、やるぞっ！")
   ShowMessageFace("soniamazda_fc1",0,0,2,174)
   ShowMessage("\\n<ソニアマズダ>滅び■、■■■■■■■■■■……")
   ShowMessage("そ■■■■■■■■■い■■■■……！！")
   ShowMessageFace("",0,0,2,175)
   ShowMessage("アポトーシスに変異してしまったソニア。")
   ShowMessage("元に戻すためにも、今は全力で戦わなければ！")
   PictureClear(5)
   SetBattleBGM(bytes(0x04,0x08,0x6f,0x3a,0x0d,0x52,0x50,0x47,0x3a,0x3a,0x42,0x47,0x4d,0x08,0x3a,0x0a,0x40,0x6e,0x61,0x6d,0x65,0x49,0x22,0x10,0x62,0x6f,0x73,0x73,0x5f,0x73,0x6f,0x6e,0x69,0x61,0x31,0x06,0x3a,0x06,0x45,0x54,0x3a,0x0c,0x40,0x76,0x6f,0x6c,0x75,0x6d,0x65,0x69,0x69,0x3a,0x0b,0x40,0x70,0x69,0x74,0x63,0x68,0x69,0x69))
   ChangeSwitch(22,22,0)
   283("DemonicWorld1","DemonicWorld")
   Battle(0,868,false,false)
   ChangeSwitch(22,22,1)
   SetBattleBGM(bytes(0x04,0x08,0x6f,0x3a,0x0d,0x52,0x50,0x47,0x3a,0x3a,0x42,0x47,0x4d,0x08,0x3a,0x0a,0x40,0x6e,0x61,0x6d,0x65,0x49,0x22,0x0b,0x62,0x61,0x74,0x74,0x6c,0x65,0x06,0x3a,0x06,0x45,0x54,0x3a,0x0c,0x40,0x76,0x6f,0x6c,0x75,0x6d,0x65,0x69,0x69,0x3a,0x0b,0x40,0x70,0x69,0x74,0x63,0x68,0x69,0x69))
   ChangeSwitch(1909,1909,0)
   ChangeSwitch(31,31,1)
   ChangeSwitch(32,32,1)
   ChangeSwitch(33,33,1)
   ChangeSwitch(34,34,1)
   ChangeSwitch(35,35,1)
   ChangeSwitch(36,36,1)
   ChangeSwitch(37,37,1)
   211(0)
   314(0,0)
   PictureDisplay(5,"80_soniamazda_st03",0,0,0,0,100,100,255,0)
   TeleportPlayer(0,746,1,0,0,2)
   EndEventProcessing()
   0()
  EndIf()
  If(0,5,0)
   PictureDisplay(5,"80_soniamanyu_st01",0,0,0,0,100,100,255,0)
   ChangeSwitch(37,37,0)
   PictureMove(10,null,0,0,0,0,100,100,0,0,60,true)
   PictureClear(10)
   241(bytes(0x04,0x08,0x6f,0x3a,0x0d,0x52,0x50,0x47,0x3a,0x3a,0x42,0x47,0x4d,0x08,0x3a,0x0a,0x40,0x6e,0x61,0x6d,0x65,0x49,0x22,0x11,0x73,0x63,0x65,0x6e,0x65,0x5f,0x73,0x6f,0x6e,0x69,0x61,0x33,0x06,0x3a,0x06,0x45,0x54,0x3a,0x0c,0x40,0x76,0x6f,0x6c,0x75,0x6d,0x65,0x69,0x69,0x3a,0x0b,0x40,0x70,0x69,0x74,0x63,0x68,0x69,0x69))
   ShowMessageFace("soniamanyu_fc1",0,0,2,176)
   ShowMessage("\\n<ソニアマンユ>闇の■■■■■■妖■■■……")
   ShowMessage("さ■■■■■■■■■■■■……")
   ShowMessageFace("ruka_fc1",0,0,2,177)
   ShowMessage("\\n<Luka>そんな、ソニア……")
   ShowMessageFace("iriasu_fc4",7,0,2,178)
   ShowMessage("\\n<Ilias>まさか……")
   ShowMessage("ソニアが、アポトーシスだったとは……")
   PictureDisplay(5,"80_eden_st35",0,0,0,0,100,100,0,0)
   PictureMove(5,null,0,0,0,0,100,100,255,0,30,true)
   ShowMessageFace("eden_fc2",4,0,2,179)
   ShowMessage("\\n<Eden>私達が止めます、イリアス様！")
   PictureDisplay(5,"80_eden_st35",0,0,-150,0,100,100,255,0)
   PictureDisplay(6,"80_lilith2_st01b",0,0,150,0,100,100,255,0)
   205(14,bytes(0x04,0x08,0x6f,0x3a,0x13,0x52,0x50,0x47,0x3a,0x3a,0x4d,0x6f,0x76,0x65,0x52,0x6f,0x75,0x74,0x65,0x09,0x3a,0x0c,0x40,0x72,0x65,0x70,0x65,0x61,0x74,0x46,0x3a,0x0f,0x40,0x73,0x6b,0x69,0x70,0x70,0x61,0x62,0x6c,0x65,0x46,0x3a,0x0a,0x40,0x77,0x61,0x69,0x74,0x46,0x3a,0x0a,0x40,0x6c,0x69,0x73,0x74,0x5b,0x07,0x6f,0x3a,0x15,0x52,0x50,0x47,0x3a,0x3a,0x4d,0x6f,0x76,0x65,0x43,0x6f,0x6d,0x6d,0x61,0x6e,0x64,0x07,0x3a,0x0a,0x40,0x63,0x6f,0x64,0x65,0x69,0x17,0x3a,0x10,0x40,0x70,0x61,0x72,0x61,0x6d,0x65,0x74,0x65,0x72,0x73,0x5b,0x00,0x6f,0x3b,0x0a,0x07,0x3b,0x0b,0x69,0x00,0x3b,0x0c,0x5b,0x00))
   205(15,bytes(0x04,0x08,0x6f,0x3a,0x13,0x52,0x50,0x47,0x3a,0x3a,0x4d,0x6f,0x76,0x65,0x52,0x6f,0x75,0x74,0x65,0x09,0x3a,0x0c,0x40,0x72,0x65,0x70,0x65,0x61,0x74,0x46,0x3a,0x0f,0x40,0x73,0x6b,0x69,0x70,0x70,0x61,0x62,0x6c,0x65,0x46,0x3a,0x0a,0x40,0x77,0x61,0x69,0x74,0x46,0x3a,0x0a,0x40,0x6c,0x69,0x73,0x74,0x5b,0x07,0x6f,0x3a,0x15,0x52,0x50,0x47,0x3a,0x3a,0x4d,0x6f,0x76,0x65,0x43,0x6f,0x6d,0x6d,0x61,0x6e,0x64,0x07,0x3a,0x0a,0x40,0x63,0x6f,0x64,0x65,0x69,0x17,0x3a,0x10,0x40,0x70,0x61,0x72,0x61,0x6d,0x65,0x74,0x65,0x72,0x73,0x5b,0x00,0x6f,0x3b,0x0a,0x07,0x3b,0x0b,0x69,0x00,0x3b,0x0c,0x5b,0x00))
   205(16,bytes(0x04,0x08,0x6f,0x3a,0x13,0x52,0x50,0x47,0x3a,0x3a,0x4d,0x6f,0x76,0x65,0x52,0x6f,0x75,0x74,0x65,0x09,0x3a,0x0c,0x40,0x72,0x65,0x70,0x65,0x61,0x74,0x46,0x3a,0x0f,0x40,0x73,0x6b,0x69,0x70,0x70,0x61,0x62,0x6c,0x65,0x46,0x3a,0x0a,0x40,0x77,0x61,0x69,0x74,0x46,0x3a,0x0a,0x40,0x6c,0x69,0x73,0x74,0x5b,0x07,0x6f,0x3a,0x15,0x52,0x50,0x47,0x3a,0x3a,0x4d,0x6f,0x76,0x65,0x43,0x6f,0x6d,0x6d,0x61,0x6e,0x64,0x07,0x3a,0x0a,0x40,0x63,0x6f,0x64,0x65,0x69,0x17,0x3a,0x10,0x40,0x70,0x61,0x72,0x61,0x6d,0x65,0x74,0x65,0x72,0x73,0x5b,0x00,0x6f,0x3b,0x0a,0x07,0x3b,0x0b,0x69,0x00,0x3b,0x0c,0x5b,0x00))
   205(17,bytes(0x04,0x08,0x6f,0x3a,0x13,0x52,0x50,0x47,0x3a,0x3a,0x4d,0x6f,0x76,0x65,0x52,0x6f,0x75,0x74,0x65,0x09,0x3a,0x0c,0x40,0x72,0x65,0x70,0x65,0x61,0x74,0x46,0x3a,0x0f,0x40,0x73,0x6b,0x69,0x70,0x70,0x61,0x62,0x6c,0x65,0x46,0x3a,0x0a,0x40,0x77,0x61,0x69,0x74,0x46,0x3a,0x0a,0x40,0x6c,0x69,0x73,0x74,0x5b,0x07,0x6f,0x3a,0x15,0x52,0x50,0x47,0x3a,0x3a,0x4d,0x6f,0x76,0x65,0x43,0x6f,0x6d,0x6d,0x61,0x6e,0x64,0x07,0x3a,0x0a,0x40,0x63,0x6f,0x64,0x65,0x69,0x16,0x3a,0x10,0x40,0x70,0x61,0x72,0x61,0x6d,0x65,0x74,0x65,0x72,0x73,0x5b,0x00,0x6f,0x3b,0x0a,0x07,0x3b,0x0b,0x69,0x00,0x3b,0x0c,0x5b,0x00))
   205(18,bytes(0x04,0x08,0x6f,0x3a,0x13,0x52,0x50,0x47,0x3a,0x3a,0x4d,0x6f,0x76,0x65,0x52,0x6f,0x75,0x74,0x65,0x09,0x3a,0x0c,0x40,0x72,0x65,0x70,0x65,0x61,0x74,0x46,0x3a,0x0f,0x40,0x73,0x6b,0x69,0x70,0x70,0x61,0x62,0x6c,0x65,0x46,0x3a,0x0a,0x40,0x77,0x61,0x69,0x74,0x46,0x3a,0x0a,0x40,0x6c,0x69,0x73,0x74,0x5b,0x07,0x6f,0x3a,0x15,0x52,0x50,0x47,0x3a,0x3a,0x4d,0x6f,0x76,0x65,0x43,0x6f,0x6d,0x6d,0x61,0x6e,0x64,0x07,0x3a,0x0a,0x40,0x63,0x6f,0x64,0x65,0x69,0x16,0x3a,0x10,0x40,0x70,0x61,0x72,0x61,0x6d,0x65,0x74,0x65,0x72,0x73,0x5b,0x00,0x6f,0x3b,0x0a,0x07,0x3b,0x0b,0x69,0x00,0x3b,0x0c,0x5b,0x00))
   205(19,bytes(0x04,0x08,0x6f,0x3a,0x13,0x52,0x50,0x47,0x3a,0x3a,0x4d,0x6f,0x76,0x65,0x52,0x6f,0x75,0x74,0x65,0x09,0x3a,0x0c,0x40,0x72,0x65,0x70,0x65,0x61,0x74,0x46,0x3a,0x0f,0x40,0x73,0x6b,0x69,0x70,0x70,0x61,0x62,0x6c,0x65,0x46,0x3a,0x0a,0x40,0x77,0x61,0x69,0x74,0x46,0x3a,0x0a,0x40,0x6c,0x69,0x73,0x74,0x5b,0x07,0x6f,0x3a,0x15,0x52,0x50,0x47,0x3a,0x3a,0x4d,0x6f,0x76,0x65,0x43,0x6f,0x6d,0x6d,0x61,0x6e,0x64,0x07,0x3a,0x0a,0x40,0x63,0x6f,0x64,0x65,0x69,0x16,0x3a,0x10,0x40,0x70,0x61,0x72,0x61,0x6d,0x65,0x74,0x65,0x72,0x73,0x5b,0x00,0x6f,0x3b,0x0a,0x07,0x3b,0x0b,0x69,0x00,0x3b,0x0c,0x5b,0x00))
   ShowMessageFace("lilith2_fc1",0,0,2,180)
   ShowMessage("\\n<Lilith>私達のことを、お忘れですか……！？")
   ShowMessageFace("shion_fc1",2,0,2,181)
   ShowMessage("\\n<シオン>くっ……邪魔をするなァッ！！")
   PictureClear(6)
   PictureDisplay(5,"80_soniamanyu_st01",0,0,0,0,100,100,0,0)
   PictureMove(5,null,0,0,0,0,100,100,255,0,30,true)
   ShowMessageFace("soniamanyu_fc1",0,0,2,182)
   ShowMessage("\\n<ソニアマンユ>こ■■■■■■吸■■■■■……")
   ShowMessage("みん■■■■■■■■■■て■■■■……")
   ShowMessageFace("ruka_fc1",0,0,2,183)
   ShowMessage("\\n<Luka>ソニア、正気を取り戻してくれ！")
   ShowMessage("僕達は――")
   ShowMessageFace("iriasu_fc4",7,0,2,184)
   ShowMessage("\\n<Ilias>無駄です、ルカ！　もはやソニアは耳を貸しません！")
   ShowMessage("武器を取らないと、こちらがやられますよ！")
   ShowMessageFace("ruka_fc1",0,0,2,185)
   ShowMessage("\\n<Luka>だからって、ソニアを倒すなんて……！")
   If(4,520,0)
    ShowMessageFace("lazarus3_fc1",0,0,2,186)
    ShowMessage("\\n<Lazarus>頭を冷やせ、ルカ……")
    ShowMessage("まずソニアを止める、次にソニアを元に戻す、の順番だ。")
    ShowMessageFace("lazarus3_fc1",0,0,2,187)
    ShowMessage("\\n<Lazarus>ここであいつを止めなきゃ、元に戻してやれねぇ……")
    ShowMessage("……分かるよな？")
    0()
   Else()
    ShowMessageFace("iriasu_fc4",7,0,2,188)
    ShowMessage("\\n<Ilias>とりあえず止めなければ、元に戻す事もできないでしょう！")
    0()
   EndIf()
   ShowMessageFace("ruka_fc1",0,0,2,189)
   ShowMessage("\\n<Luka>分かった、ソニアを元に戻すために――")
   ShowMessage("みんな、やるぞっ！")
   ShowMessageFace("iriasu_fc4",2,0,2,190)
   ShowMessage("\\n<Ilias>（ここまで侵蝕が進んだ以上、元に戻る事は――）")
   ShowMessageFace("soniamanyu_fc1",0,0,2,191)
   ShowMessage("\\n<ソニアマンユ>じゃ■、■■■■■■■■■■……")
   ShowMessage("私■■■■■■■■■滅■■■■……！！")
   ShowMessageFace("",0,0,2,192)
   ShowMessage("アポトーシスに変異してしまったソニア。")
   ShowMessage("元に戻すためにも、今は全力で戦わなければ！")
   PictureClear(5)
   SetBattleBGM(bytes(0x04,0x08,0x6f,0x3a,0x0d,0x52,0x50,0x47,0x3a,0x3a,0x42,0x47,0x4d,0x08,0x3a,0x0a,0x40,0x6e,0x61,0x6d,0x65,0x49,0x22,0x10,0x62,0x6f,0x73,0x73,0x5f,0x73,0x6f,0x6e,0x69,0x61,0x32,0x06,0x3a,0x06,0x45,0x54,0x3a,0x0c,0x40,0x76,0x6f,0x6c,0x75,0x6d,0x65,0x69,0x69,0x3a,0x0b,0x40,0x70,0x69,0x74,0x63,0x68,0x69,0x69))
   ChangeSwitch(22,22,0)
   283("DemonicWorld1","DemonicWorld")
   Battle(0,869,false,false)
   ChangeSwitch(22,22,1)
   SetBattleBGM(bytes(0x04,0x08,0x6f,0x3a,0x0d,0x52,0x50,0x47,0x3a,0x3a,0x42,0x47,0x4d,0x08,0x3a,0x0a,0x40,0x6e,0x61,0x6d,0x65,0x49,0x22,0x0b,0x62,0x61,0x74,0x74,0x6c,0x65,0x06,0x3a,0x06,0x45,0x54,0x3a,0x0c,0x40,0x76,0x6f,0x6c,0x75,0x6d,0x65,0x69,0x69,0x3a,0x0b,0x40,0x70,0x69,0x74,0x63,0x68,0x69,0x69))
   ChangeSwitch(1910,1910,0)
   ChangeSwitch(31,31,1)
   ChangeSwitch(32,32,1)
   ChangeSwitch(33,33,1)
   ChangeSwitch(34,34,1)
   ChangeSwitch(35,35,1)
   ChangeSwitch(36,36,1)
   ChangeSwitch(37,37,1)
   211(0)
   314(0,0)
   PictureDisplay(5,"80_soniamanyu_st04",0,0,0,0,100,100,255,0)
   TeleportPlayer(0,747,1,0,0,2)
   EndEventProcessing()
   0()
  EndIf()
  0()
 PAGE   2
  // condition: variable 1075 >= 16
  0()



EVENT   14
 PAGE   1
  // condition: switch 31 is ON
  0()



EVENT   15
 PAGE   1
  // condition: switch 31 is ON
  0()



EVENT   16
 PAGE   1
  // condition: switch 31 is ON
  0()



EVENT   17
 PAGE   1
  // condition: switch 32 is ON
  0()



EVENT   18
 PAGE   1
  // condition: switch 33 is ON
  0()



EVENT   19
 PAGE   1
  // condition: switch 34 is ON
  0()



EVENT   20
 PAGE   1
  // condition: variable 1075 >= 8
  0()
 PAGE   2
  // condition: variable 1075 >= 9
  0()



EVENT   21
 PAGE   1
  // condition: variable 1075 >= 8
  205(20,bytes(0x04,0x08,0x6f,0x3a,0x13,0x52,0x50,0x47,0x3a,0x3a,0x4d,0x6f,0x76,0x65,0x52,0x6f,0x75,0x74,0x65,0x09,0x3a,0x0c,0x40,0x72,0x65,0x70,0x65,0x61,0x74,0x46,0x3a,0x0f,0x40,0x73,0x6b,0x69,0x70,0x70,0x61,0x62,0x6c,0x65,0x46,0x3a,0x0a,0x40,0x77,0x61,0x69,0x74,0x54,0x3a,0x0a,0x40,0x6c,0x69,0x73,0x74,0x5b,0x12,0x6f,0x3a,0x15,0x52,0x50,0x47,0x3a,0x3a,0x4d,0x6f,0x76,0x65,0x43,0x6f,0x6d,0x6d,0x61,0x6e,0x64,0x07,0x3a,0x0a,0x40,0x63,0x6f,0x64,0x65,0x69,0x08,0x3a,0x10,0x40,0x70,0x61,0x72,0x61,0x6d,0x65,0x74,0x65,0x72,0x73,0x5b,0x00,0x6f,0x3b,0x0a,0x07,0x3b,0x0b,0x69,0x08,0x3b,0x0c,0x5b,0x00,0x6f,0x3b,0x0a,0x07,0x3b,0x0b,0x69,0x08,0x3b,0x0c,0x5b,0x00,0x6f,0x3b,0x0a,0x07,0x3b,0x0b,0x69,0x08,0x3b,0x0c,0x5b,0x00,0x6f,0x3b,0x0a,0x07,0x3b,0x0b,0x69,0x08,0x3b,0x0c,0x5b,0x00,0x6f,0x3b,0x0a,0x07,0x3b,0x0b,0x69,0x09,0x3b,0x0c,0x5b,0x00,0x6f,0x3b,0x0a,0x07,0x3b,0x0b,0x69,0x09,0x3b,0x0c,0x5b,0x00,0x6f,0x3b,0x0a,0x07,0x3b,0x0b,0x69,0x09,0x3b,0x0c,0x5b,0x00,0x6f,0x3b,0x0a,0x07,0x3b,0x0b,0x69,0x09,0x3b,0x0c,0x5b,0x00,0x6f,0x3b,0x0a,0x07,0x3b,0x0b,0x69,0x09,0x3b,0x0c,0x5b,0x00,0x6f,0x3b,0x0a,0x07,0x3b,0x0b,0x69,0x09,0x3b,0x0c,0x5b,0x00,0x6f,0x3b,0x0a,0x07,0x3b,0x0b,0x69,0x09,0x3b,0x0c,0x5b,0x00,0x6f,0x3b,0x0a,0x07,0x3b,0x0b,0x69,0x00,0x3b,0x0c,0x5b,0x00))
  ChangeVariable(1075,1075,0,0,9)
  0()
 PAGE   2
  // condition: variable 1075 >= 9
  0()



EVENT   22
 PAGE   1
  // condition: variable 1075 >= 13
  0()
 PAGE   2
  // condition: variable 1075 >= 15
  0()
 PAGE   3
  // condition: variable 1001 >= 34
  ShowMessageFace("",0,0,2,1)
  ShowMessage("返事はない、ただの屍のようだ……")
  0()



EVENT   23
 PAGE   1
  // condition: variable 1075 >= 10
  205(24,bytes(0x04,0x08,0x6f,0x3a,0x13,0x52,0x50,0x47,0x3a,0x3a,0x4d,0x6f,0x76,0x65,0x52,0x6f,0x75,0x74,0x65,0x09,0x3a,0x0c,0x40,0x72,0x65,0x70,0x65,0x61,0x74,0x46,0x3a,0x0f,0x40,0x73,0x6b,0x69,0x70,0x70,0x61,0x62,0x6c,0x65,0x46,0x3a,0x0a,0x40,0x77,0x61,0x69,0x74,0x54,0x3a,0x0a,0x40,0x6c,0x69,0x73,0x74,0x5b,0x0e,0x6f,0x3a,0x15,0x52,0x50,0x47,0x3a,0x3a,0x4d,0x6f,0x76,0x65,0x43,0x6f,0x6d,0x6d,0x61,0x6e,0x64,0x07,0x3a,0x0a,0x40,0x63,0x6f,0x64,0x65,0x69,0x09,0x3a,0x10,0x40,0x70,0x61,0x72,0x61,0x6d,0x65,0x74,0x65,0x72,0x73,0x5b,0x00,0x6f,0x3b,0x0a,0x07,0x3b,0x0b,0x69,0x09,0x3b,0x0c,0x5b,0x00,0x6f,0x3b,0x0a,0x07,0x3b,0x0b,0x69,0x09,0x3b,0x0c,0x5b,0x00,0x6f,0x3b,0x0a,0x07,0x3b,0x0b,0x69,0x09,0x3b,0x0c,0x5b,0x00,0x6f,0x3b,0x0a,0x07,0x3b,0x0b,0x69,0x09,0x3b,0x0c,0x5b,0x00,0x6f,0x3b,0x0a,0x07,0x3b,0x0b,0x69,0x09,0x3b,0x0c,0x5b,0x00,0x6f,0x3b,0x0a,0x07,0x3b,0x0b,0x69,0x09,0x3b,0x0c,0x5b,0x00,0x6f,0x3b,0x0a,0x07,0x3b,0x0b,0x69,0x09,0x3b,0x0c,0x5b,0x00,0x6f,0x3b,0x0a,0x07,0x3b,0x0b,0x69,0x00,0x3b,0x0c,0x5b,0x00))
  ChangeVariable(1075,1075,0,0,11)
  If(0,4,0)
   ShowMessageFace("alice_fc6",0,0,2,1)
   ShowMessage("\\n<Alice>この異様な感覚……")
   ShowMessage("「あれ」というのは、正面の階段を上がったすぐ先だ。")
   ShowMessageFace("alice_fc6",0,0,2,2)
   ShowMessage("\\n<Alice>戦闘になる可能性は、極めて高い。")
   ShowMessage("階段を上がる前に、きちんと準備をしていけよ。")
   0()
  EndIf()
  If(0,5,0)
   ShowMessageFace("iriasu_fc4",7,0,2,3)
   ShowMessage("\\n<Ilias>この異様な感覚……")
   ShowMessage("「あれ」というのは、正面の階段を上がったすぐ先です。")
   ShowMessageFace("iriasu_fc4",7,0,2,4)
   ShowMessage("\\n<Ilias>戦闘になる可能性は、極めて高いです。")
   ShowMessage("階段を上がる前に、きちんと準備をするように。")
   0()
  EndIf()
  ShowMessageFace("ruka_fc1",0,0,2,5)
  ShowMessage("\\n<Luka>ああ、僕にも分かるよ……")
  ShowMessage("これが、決戦の予感ってやつだね。")
  ShowMessageFace("sonia_fc2",2,0,2,6)
  ShowMessage("\\n<Sonya>……………………")
  0()
 PAGE   2
  // condition: variable 1075 >= 11
  0()



EVENT   24
 PAGE   1
  // condition: variable 1075 >= 10
  0()
 PAGE   2
  // condition: variable 1075 >= 11
  0()



EVENT   25
 PAGE   1
  // condition: variable 1075 >= 10
  205(24,bytes(0x04,0x08,0x6f,0x3a,0x13,0x52,0x50,0x47,0x3a,0x3a,0x4d,0x6f,0x76,0x65,0x52,0x6f,0x75,0x74,0x65,0x09,0x3a,0x0c,0x40,0x72,0x65,0x70,0x65,0x61,0x74,0x46,0x3a,0x0f,0x40,0x73,0x6b,0x69,0x70,0x70,0x61,0x62,0x6c,0x65,0x46,0x3a,0x0a,0x40,0x77,0x61,0x69,0x74,0x54,0x3a,0x0a,0x40,0x6c,0x69,0x73,0x74,0x5b,0x0e,0x6f,0x3a,0x15,0x52,0x50,0x47,0x3a,0x3a,0x4d,0x6f,0x76,0x65,0x43,0x6f,0x6d,0x6d,0x61,0x6e,0x64,0x07,0x3a,0x0a,0x40,0x63,0x6f,0x64,0x65,0x69,0x09,0x3a,0x10,0x40,0x70,0x61,0x72,0x61,0x6d,0x65,0x74,0x65,0x72,0x73,0x5b,0x00,0x6f,0x3b,0x0a,0x07,0x3b,0x0b,0x69,0x09,0x3b,0x0c,0x5b,0x00,0x6f,0x3b,0x0a,0x07,0x3b,0x0b,0x69,0x09,0x3b,0x0c,0x5b,0x00,0x6f,0x3b,0x0a,0x07,0x3b,0x0b,0x69,0x09,0x3b,0x0c,0x5b,0x00,0x6f,0x3b,0x0a,0x07,0x3b,0x0b,0x69,0x09,0x3b,0x0c,0x5b,0x00,0x6f,0x3b,0x0a,0x07,0x3b,0x0b,0x69,0x09,0x3b,0x0c,0x5b,0x00,0x6f,0x3b,0x0a,0x07,0x3b,0x0b,0x69,0x09,0x3b,0x0c,0x5b,0x00,0x6f,0x3b,0x0a,0x07,0x3b,0x0b,0x69,0x09,0x3b,0x0c,0x5b,0x00,0x6f,0x3b,0x0a,0x07,0x3b,0x0b,0x69,0x00,0x3b,0x0c,0x5b,0x00))
  ChangeVariable(1075,1075,0,0,11)
  If(0,4,0)
   ShowMessageFace("alice_fc6",0,0,2,1)
   ShowMessage("\\n<Alice>この異様な感覚……")
   ShowMessage("「あれ」というのは、正面の階段を上がったすぐ先だ。")
   ShowMessageFace("alice_fc6",0,0,2,2)
   ShowMessage("\\n<Alice>戦闘になる可能性は、極めて高い。")
   ShowMessage("階段を上がる前に、きちんと準備をしていけよ。")
   0()
  EndIf()
  If(0,5,0)
   ShowMessageFace("iriasu_fc4",7,0,2,3)
   ShowMessage("\\n<Ilias>この異様な感覚……")
   ShowMessage("「あれ」というのは、正面の階段を上がったすぐ先です。")
   ShowMessageFace("iriasu_fc4",7,0,2,4)
   ShowMessage("\\n<Ilias>戦闘になる可能性は、極めて高いです。")
   ShowMessage("階段を上がる前に、きちんと準備をするように。")
   0()
  EndIf()
  ShowMessageFace("ruka_fc1",0,0,2,5)
  ShowMessage("\\n<Luka>ああ、僕にも分かるよ……")
  ShowMessage("これが、決戦の予感ってやつだね。")
  ShowMessageFace("sonia_fc2",2,0,2,6)
  ShowMessage("\\n<Sonya>……………………")
  0()
 PAGE   2
  // condition: variable 1075 >= 11
  0()



EVENT   26
 PAGE   1
  If(1,1075,0,9,2)
   If(0,4,0)
    ShowMessageFace("alice_fc5",2,0,2,1)
    ShowMessage("\\n<Alice>待て、白兎のいる場所を通り過ぎてしまったぞ。")
    0()
   EndIf()
   If(0,5,0)
    ShowMessageFace("iriasu_fc4",2,0,2,2)
    ShowMessage("\\n<Ilias>待ちなさい、白兎のいる場所を通り過ぎてしまいましたよ。")
    0()
   EndIf()
   205(-1,bytes(0x04,0x08,0x6f,0x3a,0x13,0x52,0x50,0x47,0x3a,0x3a,0x4d,0x6f,0x76,0x65,0x52,0x6f,0x75,0x74,0x65,0x09,0x3a,0x0c,0x40,0x72,0x65,0x70,0x65,0x61,0x74,0x46,0x3a,0x0f,0x40,0x73,0x6b,0x69,0x70,0x70,0x61,0x62,0x6c,0x65,0x46,0x3a,0x0a,0x40,0x77,0x61,0x69,0x74,0x54,0x3a,0x0a,0x40,0x6c,0x69,0x73,0x74,0x5b,0x07,0x6f,0x3a,0x15,0x52,0x50,0x47,0x3a,0x3a,0x4d,0x6f,0x76,0x65,0x43,0x6f,0x6d,0x6d,0x61,0x6e,0x64,0x07,0x3a,0x0a,0x40,0x63,0x6f,0x64,0x65,0x69,0x07,0x3a,0x10,0x40,0x70,0x61,0x72,0x61,0x6d,0x65,0x74,0x65,0x72,0x73,0x5b,0x00,0x6f,0x3b,0x0a,0x07,0x3b,0x0b,0x69,0x00,0x3b,0x0c,0x5b,0x00))
   EndEventProcessing()
   0()
  EndIf()
  0()



EVENT   27
 PAGE   1
  // condition: variable 1075 >= 11
  0()
 PAGE   2
  // condition: variable 1075 >= 12
  ShowMessageFace("",0,0,2,1)
  ShowMessage("返事はない、ただの屍のようだ……")
  0()
 PAGE   3
  // condition: variable 1001 >= 34
  ShowMessageFace("",0,0,2,1)
  ShowMessage("返事はない、ただの屍のようだ……")
  0()



EVENT   28
 PAGE   1
  // condition: variable 1075 >= 11
  RunCommonEvent(354)
  0()
 PAGE   2
  // condition: variable 1075 >= 12
  0()



EVENT   29
 PAGE   1
  // condition: variable 1075 >= 11
  RunCommonEvent(354)
  0()
 PAGE   2
  // condition: variable 1075 >= 12
  0()



EVENT   30
 PAGE   1
  // condition: variable 1075 >= 11
  RunCommonEvent(354)
  0()
 PAGE   2
  // condition: variable 1075 >= 12
  0()



EVENT   31
 PAGE   1
  // condition: variable 1075 >= 11
  RunCommonEvent(354)
  0()
 PAGE   2
  // condition: variable 1075 >= 12
  0()



EVENT   32
 PAGE   1
  ChangeSwitch(100,100,0)
  ChangeSaveEnabled(0)
  314(0,0)
  241(bytes(0x04,0x08,0x6f,0x3a,0x0d,0x52,0x50,0x47,0x3a,0x3a,0x42,0x47,0x4d,0x08,0x3a,0x0a,0x40,0x6e,0x61,0x6d,0x65,0x49,0x22,0x0a,0x69,0x72,0x69,0x61,0x73,0x06,0x3a,0x06,0x45,0x54,0x3a,0x0c,0x40,0x76,0x6f,0x6c,0x75,0x6d,0x65,0x69,0x69,0x3a,0x0b,0x40,0x70,0x69,0x74,0x63,0x68,0x69,0x69))
  PictureDisplay(5,"80_iriasu_st04c",0,0,0,0,100,100,0,0)
  PictureMove(5,null,0,0,0,0,100,100,255,0,60,true)
  ShowMessageFace("iriasu_fc1",3,0,2,1)
  ShowMessage("\\n<Ilias>ようやく、ここまで辿り着きましたね……")
  ShowMessage("私は、あなた達の到着をずっと待っていました……")
  ShowMessageFace("iriasu_fc1",3,0,2,2)
  ShowMessage("\\n<Ilias>私は創世の女神、イリアス……")
  ShowMessage("『この世界』に存在する、絶対にして唯一の神です……")
  If(0,4,0)
   ShowMessageFace("alice_fc6",0,0,2,3)
   ShowMessage("\\n<Alice>イリアス、どういう事だ……！")
   ShowMessage("貴様が、このカオス化の中心だというのか……！？")
   ShowMessageFace("iriasu_fc1",3,0,2,4)
   ShowMessage("\\n<Ilias>ええ……私は、ずっとこの場所にいたのです。")
   ShowMessage("侵蝕が広がるのを封じ続け、この体をカオスに蝕まれながら……")
   ShowMessageFace("iriasu_fc1",3,0,2,5)
   ShowMessage("\\n<Ilias>ルカ……")
   ShowMessage("旅立ちの日、あなたに交信を送ったのを覚えていますか？")
   ShowMessageFace("ruka_fc1",0,0,2,6)
   ShowMessage("\\n<Luka>は、はい……")
   ShowMessageFace("iriasu_fc1",3,0,2,7)
   ShowMessage("\\n<Ilias>間もなく、私は滅びます。")
   ShowMessage("今こそ、あなたに全てを告げましょう……")
   0()
  EndIf()
  If(0,5,0)
   ShowMessageFace("iriasu_fc4",7,0,2,8)
   ShowMessage("\\n<Ilias>……いいえ、私こそがイリアスです！")
   ShowMessage("あなたは、イリアスを名乗る偽物ではないのですか！？")
   ShowMessageFace("iriasu_fc1",3,0,2,9)
   ShowMessage("\\n<Ilias>言ったはずです……私は、『この世界』のイリアスだと。")
   ShowMessage("数ある並行世界のうち、この世界出身のイリアスなのです。")
   ShowMessageFace("iriasu_fc4",7,0,2,10)
   ShowMessage("\\n<Ilias>ならば……ならば私は、何なのです！？")
   ShowMessage("あなたがこの世界のイリアスだというなら、私は――")
   ShowMessageFace("iriasu_fc1",3,0,2,11)
   ShowMessage("\\n<Ilias>思い出すのです、もう一人の私……")
   ShowMessage("あなたは、誰に六祖大縛呪を掛けられたのですか？")
   ShowMessageFace("iriasu_fc4",6,0,2,12)
   ShowMessage("\\n<Ilias>そ、それは――")
   242(1)
   250(bytes(0x04,0x08,0x6f,0x3a,0x0c,0x52,0x50,0x47,0x3a,0x3a,0x53,0x45,0x08,0x3a,0x0a,0x40,0x6e,0x61,0x6d,0x65,0x49,0x22,0x0e,0x6d,0x6f,0x6e,0x5f,0x6b,0x6f,0x64,0x6f,0x75,0x06,0x3a,0x06,0x45,0x54,0x3a,0x0b,0x40,0x70,0x69,0x74,0x63,0x68,0x69,0x69,0x3a,0x0c,0x40,0x76,0x6f,0x6c,0x75,0x6d,0x65,0x69,0x69))
   221()
   223(bytes(0x04,0x08,0x75,0x3a,0x09,0x54,0x6f,0x6e,0x65,0x25,0x00,0x00,0x00,0x00,0x00,0x00,0x00,0x00,0x00,0x00,0x00,0x00,0x00,0x00,0x00,0x00,0x00,0x00,0x00,0x00,0x00,0x00,0x00,0x00,0x00,0x00,0x00,0x00,0x00,0xe0,0x6f,0x40),1,false)
   PictureDisplay(1,"bg001",0,0,0,0,100,100,255,0)
   PictureDisplay(5,"80_iriasu_st04",0,0,-150,0,100,100,255,0)
   PictureDisplay(6,"80_stein_st02",0,0,170,0,100,100,255,0)
   Wait(30)
   222()
   241(bytes(0x04,0x08,0x6f,0x3a,0x0d,0x52,0x50,0x47,0x3a,0x3a,0x42,0x47,0x4d,0x08,0x3a,0x0a,0x40,0x6e,0x61,0x6d,0x65,0x49,0x22,0x14,0x73,0x63,0x65,0x6e,0x65,0x5f,0x6b,0x61,0x6e,0x61,0x73,0x69,0x6d,0x69,0x34,0x06,0x3a,0x06,0x45,0x54,0x3a,0x0c,0x40,0x76,0x6f,0x6c,0x75,0x6d,0x65,0x69,0x69,0x3a,0x0b,0x40,0x70,0x69,0x74,0x63,0x68,0x69,0x69))
   Wait(60)
   ShowMessageFace("stein_fc1",1,0,2,13)
   ShowMessage("\\n<Promestein>イリアス様……大罪人たる私を赦免して頂いた恩は忘れません。")
   ShowMessage("たとえ、私を利用したかっただけにしろ……お互い様ですので。")
   ShowMessageFace("iriasu_fc1",3,0,2,14)
   ShowMessage("\\n<Ilias>何を言っているのです、あなたは――")
   ShowMessageFace("stein_fc1",1,0,2,15)
   ShowMessage("\\n<Promestein>……………………")
   250(bytes(0x04,0x08,0x6f,0x3a,0x0c,0x52,0x50,0x47,0x3a,0x3a,0x53,0x45,0x08,0x3a,0x0a,0x40,0x6e,0x61,0x6d,0x65,0x49,0x22,0x10,0x6d,0x6f,0x6e,0x5f,0x62,0x61,0x6b,0x75,0x7a,0x79,0x75,0x06,0x3a,0x06,0x45,0x54,0x3a,0x0b,0x40,0x70,0x69,0x74,0x63,0x68,0x69,0x69,0x3a,0x0c,0x40,0x76,0x6f,0x6c,0x75,0x6d,0x65,0x69,0x55))
   224(bytes(0x04,0x08,0x75,0x3a,0x0a,0x43,0x6f,0x6c,0x6f,0x72,0x25,0x00,0x00,0x00,0x00,0x00,0x40,0x65,0x40,0x00,0x00,0x00,0x00,0x00,0xe0,0x6f,0x40,0x00,0x00,0x00,0x00,0x00,0xe0,0x6f,0x40,0x00,0x00,0x00,0x00,0x00,0xe0,0x6f,0x40),60,true)
   PictureDisplay(5,"80_iriasu_st06",0,0,-150,0,100,100,255,0)
   ShowMessageFace("iriasu_fc1",5,0,2,16)
   ShowMessage("\\n<Ilias>まさか、これは――六祖大縛呪！？")
   ShowMessage("なぜ、これを私に……！！")
   ShowMessageFace("stein_fc1",1,0,2,17)
   ShowMessage("\\n<Promestein>創世の女神でさえ、この封印に抗えないのは計算済み。")
   ShowMessage("同格の邪神アリスフィーズですら、これで封印されたのですから……")
   ShowMessageFace("iriasu_fc1",5,0,2,18)
   ShowMessage("\\n<Ilias>くっ、ここに至って乱心するとは……！")
   ShowMessage("黒のアリス、ただちにプロメスティンを――")
   PictureDisplay(6,"80_alice8th_st01",0,0,150,0,100,100,255,0)
   ShowMessageFace("alice8th_fc1",0,0,2,19)
   ShowMessage("\\n<黒のアリス>うふふっ……")
   ShowMessageFace("iriasu_fc1",5,0,2,20)
   ShowMessage("\\n<Ilias>黒のアリス……あなたは……")
   ShowMessage("いや、あなた達は……！")
   PictureDisplay(6,"80_alice8th_st02",0,0,150,0,100,100,255,0)
   ShowMessageFace("alice8th_fc1",1,0,2,21)
   ShowMessage("\\n<黒のアリス>……さようなら、女神様。")
   250(bytes(0x04,0x08,0x6f,0x3a,0x0c,0x52,0x50,0x47,0x3a,0x3a,0x53,0x45,0x08,0x3a,0x0a,0x40,0x6e,0x61,0x6d,0x65,0x49,0x22,0x0e,0x6d,0x6f,0x6e,0x5f,0x6b,0x6f,0x64,0x6f,0x75,0x06,0x3a,0x06,0x45,0x54,0x3a,0x0b,0x40,0x70,0x69,0x74,0x63,0x68,0x69,0x69,0x3a,0x0c,0x40,0x76,0x6f,0x6c,0x75,0x6d,0x65,0x69,0x69))
   221()
   PictureClear(5)
   PictureClear(6)
   PictureClear(1)
   Wait(30)
   223(bytes(0x04,0x08,0x75,0x3a,0x09,0x54,0x6f,0x6e,0x65,0x25,0x00,0x00,0x00,0x00,0x00,0x00,0x00,0x00,0x00,0x00,0x00,0x00,0x00,0x00,0x00,0x00,0x00,0x00,0x00,0x00,0x00,0x00,0x00,0x00,0x00,0x00,0x00,0x00,0x00,0x00,0x00,0x00),1,false)
   241(bytes(0x04,0x08,0x6f,0x3a,0x0d,0x52,0x50,0x47,0x3a,0x3a,0x42,0x47,0x4d,0x08,0x3a,0x0a,0x40,0x6e,0x61,0x6d,0x65,0x49,0x22,0x0a,0x69,0x72,0x69,0x61,0x73,0x06,0x3a,0x06,0x45,0x54,0x3a,0x0c,0x40,0x76,0x6f,0x6c,0x75,0x6d,0x65,0x69,0x69,0x3a,0x0b,0x40,0x70,0x69,0x74,0x63,0x68,0x69,0x69))
   222()
   PictureDisplay(5,"80_iriasu_st04c",0,0,0,0,100,100,0,0)
   PictureMove(5,null,0,0,0,0,100,100,255,0,30,true)
   ShowMessageFace("iriasu_fc4",6,0,2,22)
   ShowMessage("\\n<Ilias>そんな……この記憶は……")
   ShowMessage("ならば、私は……")
   ShowMessageFace("iriasu_fc1",3,0,2,23)
   ShowMessage("\\n<Ilias>そう……あなたは、この世界の女神イリアスではありません。")
   ShowMessage("あなたは、正史世界のイリアスなのです。")
   ShowMessageFace("iriasu_fc4",6,0,2,24)
   ShowMessage("\\n<Ilias>私が、正史のイリアス……")
   ShowMessage("だからこの世界の歴史は、私の全く知らないものだったのですね……")
   ShowMessageFace("iriasu_fc4",7,0,2,25)
   ShowMessage("\\n<Ilias>しかしあの記憶の後、私は聖魔融合を行い復活したはず。")
   ShowMessage("あれ自体、再創世計画に沿った成り行きであったのですから。")
   ShowMessageFace("iriasu_fc4",2,0,2,26)
   ShowMessage("\\n<Ilias>あの後、私は――")
   ShowMessage("聖魔の融合を遂げた究極体となって、ルカと――")
   ShowMessageFace("iriasu_fc1",3,0,2,27)
   ShowMessage("\\n<Ilias>まだまだ、記憶が不確かなのですね。")
   ShowMessage("その後に起きた事こそが、事態の核心なのです。")
   0()
  EndIf()
  ShowMessageFace("iriasu_fc1",3,0,2,28)
  ShowMessage("\\n<Ilias>白兎より、正史が破綻した事は聞きましたね。")
  ShowMessage("パラドックスの発生により、幾多の並行世界に分岐してしまったと――")
  If(0,4,0)
   ShowMessageFace("alice_fc6",0,0,2,29)
   ShowMessage("\\n<Alice>ああ……パラドックスとは、何なのだ？")
   ShowMessage("いったいなぜ、世界が破綻した！？")
   0()
  EndIf()
  If(0,5,0)
   ShowMessageFace("iriasu_fc4",7,0,2,30)
   ShowMessage("\\n<Ilias>ええ……パラドックスとは、何ですか？")
   ShowMessage("いったいなぜ、世界が破綻したのです！？")
   0()
  EndIf()
  ShowMessageFace("iriasu_fc1",3,0,2,31)
  ShowMessage("\\n<Ilias>傷んだ時空が破綻し、パラドックスが起きた最大の原因――")
  ShowMessage("それは、正史世界における女神イリアスの死なのです。")
  If(0,4,0)
   ShowMessageFace("alice_fc6",0,0,2,32)
   ShowMessage("\\n<Alice>正史世界のイリアスが……死んだ……！？")
   0()
  EndIf()
  If(0,5,0)
   ShowMessageFace("iriasu_fc4",5,0,2,33)
   ShowMessage("\\n<Ilias>そんな……私が……？")
   ShowMessageFace("iriasu_fc4",5,0,2,34)
   ShowMessage("\\n<Ilias>私こそが正史世界のイリアスと言ったではないですか！")
   ShowMessage("なぜ、その私が死んだのです！？")
   ShowMessageFace("iriasu_fc1",3,0,2,35)
   ShowMessage("\\n<Ilias>今の貴方は、断片に過ぎません。")
   ShowMessage("正史イリアスの大部分は、滅びてしまったのですよ。")
   0()
  EndIf()
  ShowMessageFace("iriasu_fc1",3,0,2,36)
  ShowMessage("\\n<Ilias>再創世計画が破綻し、イリアスは勇者ルカに討たれ――")
  ShowMessage("そして、世界から神という絶大な存在が消え去りました。")
  ShowMessageFace("iriasu_fc1",3,0,2,37)
  ShowMessage("\\n<Ilias>強大な力の喪失、聖エネルギーの空白化。")
  ShowMessage("それは、元より劣化していた時空連続体を一気に不安定にしました。")
  ShowMessageFace("iriasu_fc1",3,0,2,38)
  ShowMessage("\\n<Ilias>その余波は、時を隔てて正史の過去未来を歪ませました。")
  ShowMessage("そして、最悪の事態が起きてしまうのです。")
  ShowMessageFace("iriasu_fc1",3,0,2,39)
  ShowMessage("\\n<Ilias>あなた達が、大異変として知っている――")
  ShowMessage("三十年前、時空連続体の破綻を決定づけた大災厄が。")
  ShowMessageFace("ruka_fc1",0,0,2,40)
  ShowMessage("\\n<Luka>大災厄……")
  If(0,4,0)
   ShowMessageFace("alice_fc5",2,0,2,41)
   ShowMessage("\\n<Alice>その災厄が原因で、我々の世界が生まれたのだな？")
   ShowMessage("正史世界から初めて分岐した、最初の並行世界が――")
   0()
  EndIf()
  If(0,5,0)
   ShowMessageFace("iriasu_fc4",7,0,2,42)
   ShowMessage("\\n<Ilias>その災厄が原因で、この世界が生まれたのですね？")
   ShowMessage("正史世界から初めて分岐した、最初の並行世界が――")
   0()
  EndIf()
  ShowMessageFace("iriasu_fc1",3,0,2,43)
  ShowMessage("\\n<Ilias>ええ……それを皮切りに、無数の並行世界が発生したのです。")
  ShowMessage("水を掻き混ぜれば、無数の泡が増えていくように……")
  ShowMessageFace("ruka_fc1",0,0,2,44)
  ShowMessage("\\n<Luka>その大災厄とはいったい、何なのですか！？")
  ShowMessage("女神イリアスの死で過去未来が歪み、何が起きたんです！？")
  ShowMessageFace("iriasu_fc1",3,0,2,45)
  ShowMessage("\\n<Ilias>それは、私が口で説明するよりも……")
  ShowMessage("実際にあなた達の目で見てもらった方が良いですね。")
  ShowMessageFace("iriasu_fc1",3,0,2,46)
  ShowMessage("\\n<Ilias>……どうせいるのでしょう、白兎。")
  ShowMessage("姿を見せなさい。")
  PictureClear(5)
  Wait(60)
  ChangeVariable(1075,1075,0,0,13)
  250(bytes(0x04,0x08,0x6f,0x3a,0x0c,0x52,0x50,0x47,0x3a,0x3a,0x53,0x45,0x08,0x3a,0x0a,0x40,0x6e,0x61,0x6d,0x65,0x49,0x22,0x10,0x6d,0x6f,0x6e,0x5f,0x74,0x61,0x6d,0x61,0x6d,0x6f,0x32,0x06,0x3a,0x06,0x45,0x54,0x3a,0x0b,0x40,0x70,0x69,0x74,0x63,0x68,0x69,0x69,0x3a,0x0c,0x40,0x76,0x6f,0x6c,0x75,0x6d,0x65,0x69,0x55))
  205(22,bytes(0x04,0x08,0x6f,0x3a,0x13,0x52,0x50,0x47,0x3a,0x3a,0x4d,0x6f,0x76,0x65,0x52,0x6f,0x75,0x74,0x65,0x09,0x3a,0x0c,0x40,0x72,0x65,0x70,0x65,0x61,0x74,0x46,0x3a,0x0f,0x40,0x73,0x6b,0x69,0x70,0x70,0x61,0x62,0x6c,0x65,0x46,0x3a,0x0a,0x40,0x77,0x61,0x69,0x74,0x54,0x3a,0x0a,0x40,0x6c,0x69,0x73,0x74,0x5b,0x08,0x6f,0x3a,0x15,0x52,0x50,0x47,0x3a,0x3a,0x4d,0x6f,0x76,0x65,0x43,0x6f,0x6d,0x6d,0x61,0x6e,0x64,0x07,0x3a,0x0a,0x40,0x63,0x6f,0x64,0x65,0x69,0x13,0x3a,0x10,0x40,0x70,0x61,0x72,0x61,0x6d,0x65,0x74,0x65,0x72,0x73,0x5b,0x07,0x69,0x00,0x69,0x00,0x6f,0x3b,0x0a,0x07,0x3b,0x0b,0x69,0x16,0x3b,0x0c,0x5b,0x00,0x6f,0x3b,0x0a,0x07,0x3b,0x0b,0x69,0x00,0x3b,0x0c,0x5b,0x00))
  PictureDisplay(5,"80_sirousagi_st01",0,0,0,0,100,100,0,0)
  PictureMove(5,null,0,0,0,0,100,100,255,0,30,true)
  ShowMessageFace("sirousagi_fc1",0,0,2,47)
  ShowMessage("\\n<White Rabbit>じゃじゃ～ん♪")
  ShowMessageFace("ruka_fc1",0,0,2,48)
  ShowMessage("\\n<Luka>生きてたのか！？")
  ShowMessageFace("sirousagi_fc1",0,0,2,49)
  ShowMessage("\\n<White Rabbit>言ったでしょ、ボクは偏在してるって……")
  ShowMessage("それじゃあ、イリアス様のお言葉通りに導いてあげるよ。")
  ShowMessageFace("sirousagi_fc1",0,0,2,50)
  ShowMessage("\\n<White Rabbit>あの大災厄が発生した日……")
  ShowMessage("三十年前のレミナにね。")
  If(0,4,0)
   ShowMessageFace("alice_fc6",0,0,2,51)
   ShowMessage("\\n<Alice>大異変が発生した時のレミナだと！？")
   0()
  EndIf()
  If(0,5,0)
   ShowMessageFace("iriasu_fc4",7,0,2,52)
   ShowMessage("\\n<Ilias>大異変が発生した時のレミナに……！？")
   0()
  EndIf()
  PictureDisplay(6,"80_sirousagi_st01",0,0,-180,0,100,100,255,0)
  PictureDisplay(5,"80_iriasu_st04c",0,0,150,0,100,100,255,0)
  ShowMessageFace("iriasu_fc1",3,0,2,53)
  ShowMessage("\\n<Ilias>ええ、一時的に時間を遡ってもらいます。")
  ShowMessage("頼みましたよ、白兎……")
  ShowMessageFace("sirousagi_fc1",0,0,2,54)
  ShowMessage("\\n<White Rabbit>頼まれなくても、導くのがボクの仕事さ！")
  ShowMessage("それじゃあ、いっくよ～！")
  PictureClear(5)
  PictureClear(6)
  242(1)
  Wait(60)
  212(-1,542,false)
  Wait(30)
  205(22,bytes(0x04,0x08,0x6f,0x3a,0x13,0x52,0x50,0x47,0x3a,0x3a,0x4d,0x6f,0x76,0x65,0x52,0x6f,0x75,0x74,0x65,0x09,0x3a,0x0c,0x40,0x72,0x65,0x70,0x65,0x61,0x74,0x46,0x3a,0x0f,0x40,0x73,0x6b,0x69,0x70,0x70,0x61,0x62,0x6c,0x65,0x46,0x3a,0x0a,0x40,0x77,0x61,0x69,0x74,0x54,0x3a,0x0a,0x40,0x6c,0x69,0x73,0x74,0x5b,0x07,0x6f,0x3a,0x15,0x52,0x50,0x47,0x3a,0x3a,0x4d,0x6f,0x76,0x65,0x43,0x6f,0x6d,0x6d,0x61,0x6e,0x64,0x07,0x3a,0x0a,0x40,0x63,0x6f,0x64,0x65,0x69,0x2c,0x3a,0x10,0x40,0x70,0x61,0x72,0x61,0x6d,0x65,0x74,0x65,0x72,0x73,0x5b,0x00,0x6f,0x3b,0x0a,0x07,0x3b,0x0b,0x69,0x00,0x3b,0x0c,0x5b,0x00))
  211(0)
  Wait(60)
  221()
  Wait(120)
  TeleportPlayer(0,730,8,51,8,2)
  211(1)
  222()
  EndEventProcessing()
  0()
 PAGE   2
  // condition: variable 1075 >= 16
  0()



EVENT   33
 PAGE   1
  // condition: variable 1075 >= 8
  205(20,bytes(0x04,0x08,0x6f,0x3a,0x13,0x52,0x50,0x47,0x3a,0x3a,0x4d,0x6f,0x76,0x65,0x52,0x6f,0x75,0x74,0x65,0x09,0x3a,0x0c,0x40,0x72,0x65,0x70,0x65,0x61,0x74,0x46,0x3a,0x0f,0x40,0x73,0x6b,0x69,0x70,0x70,0x61,0x62,0x6c,0x65,0x46,0x3a,0x0a,0x40,0x77,0x61,0x69,0x74,0x54,0x3a,0x0a,0x40,0x6c,0x69,0x73,0x74,0x5b,0x12,0x6f,0x3a,0x15,0x52,0x50,0x47,0x3a,0x3a,0x4d,0x6f,0x76,0x65,0x43,0x6f,0x6d,0x6d,0x61,0x6e,0x64,0x07,0x3a,0x0a,0x40,0x63,0x6f,0x64,0x65,0x69,0x08,0x3a,0x10,0x40,0x70,0x61,0x72,0x61,0x6d,0x65,0x74,0x65,0x72,0x73,0x5b,0x00,0x6f,0x3b,0x0a,0x07,0x3b,0x0b,0x69,0x08,0x3b,0x0c,0x5b,0x00,0x6f,0x3b,0x0a,0x07,0x3b,0x0b,0x69,0x08,0x3b,0x0c,0x5b,0x00,0x6f,0x3b,0x0a,0x07,0x3b,0x0b,0x69,0x08,0x3b,0x0c,0x5b,0x00,0x6f,0x3b,0x0a,0x07,0x3b,0x0b,0x69,0x08,0x3b,0x0c,0x5b,0x00,0x6f,0x3b,0x0a,0x07,0x3b,0x0b,0x69,0x09,0x3b,0x0c,0x5b,0x00,0x6f,0x3b,0x0a,0x07,0x3b,0x0b,0x69,0x09,0x3b,0x0c,0x5b,0x00,0x6f,0x3b,0x0a,0x07,0x3b,0x0b,0x69,0x09,0x3b,0x0c,0x5b,0x00,0x6f,0x3b,0x0a,0x07,0x3b,0x0b,0x69,0x09,0x3b,0x0c,0x5b,0x00,0x6f,0x3b,0x0a,0x07,0x3b,0x0b,0x69,0x09,0x3b,0x0c,0x5b,0x00,0x6f,0x3b,0x0a,0x07,0x3b,0x0b,0x69,0x09,0x3b,0x0c,0x5b,0x00,0x6f,0x3b,0x0a,0x07,0x3b,0x0b,0x69,0x09,0x3b,0x0c,0x5b,0x00,0x6f,0x3b,0x0a,0x07,0x3b,0x0b,0x69,0x00,0x3b,0x0c,0x5b,0x00))
  ChangeVariable(1075,1075,0,0,9)
  0()
 PAGE   2
  // condition: variable 1075 >= 9
  0()



EVENT   34
 PAGE   1
  If(12,"unlock_level < 3")
   ShowMessageFace("",0,0,2,1)
   ShowMessage("The chest is locked.")
   EndEventProcessing()
   0()
  EndIf()
  250(bytes(0x04,0x08,0x6f,0x3a,0x0c,0x52,0x50,0x47,0x3a,0x3a,0x53,0x45,0x08,0x3a,0x0a,0x40,0x6e,0x61,0x6d,0x65,0x49,0x22,0x0a,0x43,0x68,0x65,0x73,0x74,0x06,0x3a,0x06,0x45,0x54,0x3a,0x0b,0x40,0x70,0x69,0x74,0x63,0x68,0x69,0x69,0x3a,0x0c,0x40,0x76,0x6f,0x6c,0x75,0x6d,0x65,0x69,0x55))
  205(0,bytes(0x04,0x08,0x6f,0x3a,0x13,0x52,0x50,0x47,0x3a,0x3a,0x4d,0x6f,0x76,0x65,0x52,0x6f,0x75,0x74,0x65,0x09,0x3a,0x0c,0x40,0x72,0x65,0x70,0x65,0x61,0x74,0x46,0x3a,0x0f,0x40,0x73,0x6b,0x69,0x70,0x70,0x61,0x62,0x6c,0x65,0x46,0x3a,0x0a,0x40,0x77,0x61,0x69,0x74,0x54,0x3a,0x0a,0x40,0x6c,0x69,0x73,0x74,0x5b,0x0b,0x6f,0x3a,0x15,0x52,0x50,0x47,0x3a,0x3a,0x4d,0x6f,0x76,0x65,0x43,0x6f,0x6d,0x6d,0x61,0x6e,0x64,0x07,0x3a,0x0a,0x40,0x63,0x6f,0x64,0x65,0x69,0x29,0x3a,0x10,0x40,0x70,0x61,0x72,0x61,0x6d,0x65,0x74,0x65,0x72,0x73,0x5b,0x00,0x6f,0x3b,0x0a,0x07,0x3b,0x0b,0x69,0x16,0x3b,0x0c,0x5b,0x00,0x6f,0x3b,0x0a,0x07,0x3b,0x0b,0x69,0x14,0x3b,0x0c,0x5b,0x06,0x69,0x08,0x6f,0x3b,0x0a,0x07,0x3b,0x0b,0x69,0x17,0x3b,0x0c,0x5b,0x00,0x6f,0x3b,0x0a,0x07,0x3b,0x0b,0x69,0x14,0x3b,0x0c,0x5b,0x06,0x69,0x08,0x6f,0x3b,0x0a,0x07,0x3b,0x0b,0x69,0x00,0x3b,0x0c,0x5b,0x00))
  ChangeSelfSwitch("A",0)
  ChangeInventoryWeapon(257,0,0,1)
  0()
 PAGE   2
  // condition: self-switch A is ON
  0()



EVENT   35
 PAGE   1
  // condition: switch 35 is ON
  0()
 PAGE   2
  // condition: switch 36 is ON
  0()
 PAGE   3
  // condition: switch 37 is ON
  // condition: switch 4 is ON
  0()
 PAGE   4
  // condition: switch 37 is ON
  // condition: switch 5 is ON
  0()



EVENT   36
 PAGE   1
  If(12,"unlock_level < 3")
   ShowMessageFace("",0,0,2,1)
   ShowMessage("The chest is locked.")
   EndEventProcessing()
   0()
  EndIf()
  250(bytes(0x04,0x08,0x6f,0x3a,0x0c,0x52,0x50,0x47,0x3a,0x3a,0x53,0x45,0x08,0x3a,0x0a,0x40,0x6e,0x61,0x6d,0x65,0x49,0x22,0x0a,0x43,0x68,0x65,0x73,0x74,0x06,0x3a,0x06,0x45,0x54,0x3a,0x0b,0x40,0x70,0x69,0x74,0x63,0x68,0x69,0x69,0x3a,0x0c,0x40,0x76,0x6f,0x6c,0x75,0x6d,0x65,0x69,0x55))
  205(0,bytes(0x04,0x08,0x6f,0x3a,0x13,0x52,0x50,0x47,0x3a,0x3a,0x4d,0x6f,0x76,0x65,0x52,0x6f,0x75,0x74,0x65,0x09,0x3a,0x0c,0x40,0x72,0x65,0x70,0x65,0x61,0x74,0x46,0x3a,0x0f,0x40,0x73,0x6b,0x69,0x70,0x70,0x61,0x62,0x6c,0x65,0x46,0x3a,0x0a,0x40,0x77,0x61,0x69,0x74,0x54,0x3a,0x0a,0x40,0x6c,0x69,0x73,0x74,0x5b,0x0b,0x6f,0x3a,0x15,0x52,0x50,0x47,0x3a,0x3a,0x4d,0x6f,0x76,0x65,0x43,0x6f,0x6d,0x6d,0x61,0x6e,0x64,0x07,0x3a,0x0a,0x40,0x63,0x6f,0x64,0x65,0x69,0x29,0x3a,0x10,0x40,0x70,0x61,0x72,0x61,0x6d,0x65,0x74,0x65,0x72,0x73,0x5b,0x00,0x6f,0x3b,0x0a,0x07,0x3b,0x0b,0x69,0x16,0x3b,0x0c,0x5b,0x00,0x6f,0x3b,0x0a,0x07,0x3b,0x0b,0x69,0x14,0x3b,0x0c,0x5b,0x06,0x69,0x08,0x6f,0x3b,0x0a,0x07,0x3b,0x0b,0x69,0x17,0x3b,0x0c,0x5b,0x00,0x6f,0x3b,0x0a,0x07,0x3b,0x0b,0x69,0x14,0x3b,0x0c,0x5b,0x06,0x69,0x08,0x6f,0x3b,0x0a,0x07,0x3b,0x0b,0x69,0x00,0x3b,0x0c,0x5b,0x00))
  ChangeSelfSwitch("A",0)
  ChangeInventoryArmor(173,0,0,1)
  0()
 PAGE   2
  // condition: self-switch A is ON
  0()


