// EVENT 0329
Name "女王撃破後"

If(1,1070,0,3,1)
 If(1,1071,0,3,1)
  If(1,1072,0,3,1)
   If(1,1073,0,3,1)
    If(1,1079,0,1,0)
     ShowMessageFace("grandnoa_fc1",0,0,2,1)
     ShowMessage("\\n<Queen of Grand Noah>これで、四大国を脅かす妖魔の女王を全て撃破しましたね。")
     ShowMessage("ようやく、魔王軍の猛攻も緩む事でしょう。")
     ShowMessageFace("grandnoa_fc1",0,0,2,2)
     ShowMessage("\\n<Queen of Grand Noah>さっそくですが、我が城にて首脳会議を開きます。")
     ShowMessage("勇者ルカ、あなたも出席して頂けますね？")
     0()
    EndIf()
    If(1,1079,0,2,0)
     ShowMessageFace("saniria_fc2",0,0,2,3)
     ShowMessage("\\n<King of San Ilia>これで、四大国を脅かす妖魔の女王は全て君によって撃破された。")
     ShowMessage("ようやく、魔王軍の猛攻も緩む事だろう……")
     ShowMessageFace("saniria_fc2",0,0,2,4)
     ShowMessage("\\n<King of San Ilia>ちょうど今、グランドノアより首脳会議開催の連絡が入った。")
     ShowMessage("勇者ルカ、君にも出席してもらえるかね？")
     0()
    EndIf()
    If(1,1079,0,3,0)
     ShowMessageFace("grangold_fc2",0,0,2,5)
     ShowMessage("\\n<King of Grangold>これで、四大国を脅かす妖魔の女王を全て打ち破ったね。")
     ShowMessage("君達のおかげで、戦局はかなり有利になったはずだ。")
     ShowMessageFace("grangold_fc2",0,0,2,6)
     ShowMessage("\\n<King of Grangold>ちょうど今、グランドノアより首脳会議開催の提案が入った。")
     ShowMessage("君も一緒に、会議に出てくれるよね？")
     0()
    EndIf()
    If(1,1079,0,4,0)
     ShowMessageFace("sara_fc2",1,0,2,7)
     ShowMessage("\\n<Sara>これで、四大国に攻め寄せる妖魔の女王は全て打ち破りました。")
     ShowMessage("魔王軍との戦いも、かなり楽になるはず……")
     ShowMessageFace("sara_fc2",1,0,2,8)
     ShowMessage("\\n<Sara>先ほど、グランドノアから首脳会議開催の提案がありました。")
     ShowMessage("あなた達も一緒に、会議に出席してもらいましょう……")
     0()
    EndIf()
    ShowMessageFace("ruka_fc1",0,0,2,9)
    ShowMessage("\\n<Luka>はい、もちろん！")
    221()
    PictureClear(5)
    ChangeSwitch(31,31,1)
    ChangeSwitch(32,32,1)
    ShowMessageFace("",0,0,2,10)
    ShowMessage("こうして僕達は、各地の女王を打ち破った。")
    ShowMessage("これで魔王軍の勢いも弱まり、形勢も持ち直すだろう。")
    ShowMessageFace("",0,0,2,11)
    ShowMessage("今こそ、魔王に反撃する絶好の機会。")
    ShowMessage("こうして僕達は、四大国の首脳会議に出席した――")
    Wait(60)
    216(1)
    TeleportPlayer(0,725,11,9,4,2)
    ChangeSwitch(2274,2274,0)
    222()
    EndEventProcessing()
    0()
   EndIf()
   0()
  EndIf()
  0()
 EndIf()
 0()
EndIf()
0()
