// EVENT 3046
Name "Two-Tail Silver Kitsune"

If(0,25,1)
 JumpToLabel("反省会")
 0()
EndIf()
PictureDisplay(5,"80_youko_st02",0,0,0,0,100,100,0,0)
PictureMove(5,null,0,0,0,0,100,100,255,0,30,true)
241(bytes(0x04,0x08,0x6f,0x3a,0x0d,0x52,0x50,0x47,0x3a,0x3a,0x42,0x47,0x4d,0x08,0x3a,0x0a,0x40,0x6e,0x61,0x6d,0x65,0x49,0x22,0x09,0x65,0x72,0x6f,0x31,0x06,0x3a,0x06,0x45,0x54,0x3a,0x0c,0x40,0x76,0x6f,0x6c,0x75,0x6d,0x65,0x69,0x69,0x3a,0x0b,0x40,0x70,0x69,0x74,0x63,0x68,0x69,0x69))
ShowMessageFace("youko_fc1",1,0,2,1)
ShowMessage("\\n<Kitsune>Wow! You really took it out of me...\nBut you lost! So hurry up and lie down, I need to re-energize!")
ShowMessageFace("",0,0,2,2)
ShowMessage("The Kitsune pushes me to the ground!")
ShowMessage("Before I can react, she jumps on top of me! I can see her pussy spread open wide just above my penis, the sight makes my face flush red.")
ShowMessageFace("youko_fc1",1,0,2,3)
ShowMessage("\\n<Kitsune>Ehehe... I'll put you in...")
ShowMessageFace("",0,0,2,4)
ShowMessage("\\n<Luka>Ah... Stop... Ahhhhh!")
245(bytes(0x04,0x08,0x6f,0x3a,0x0d,0x52,0x50,0x47,0x3a,0x3a,0x42,0x47,0x53,0x08,0x3a,0x0a,0x40,0x6e,0x61,0x6d,0x65,0x49,0x22,0x1e,0x6d,0x6f,0x6e,0x5f,0x68,0x73,0x65,0x61,0x6e,0x30,0x31,0x5f,0x69,0x6e,0x6e,0x65,0x72,0x77,0x6f,0x72,0x6b,0x73,0x5f,0x61,0x31,0x06,0x3a,0x06,0x45,0x54,0x3a,0x0c,0x40,0x76,0x6f,0x6c,0x75,0x6d,0x65,0x69,0x55,0x3a,0x0b,0x40,0x70,0x69,0x74,0x63,0x68,0x69,0x69))
PictureDisplay(5,"ev_youko_h1",0,0,0,0,100,100,255,0)
ShowMessageFace("",0,0,2,5)
ShowMessage("My dick is forced into her tiny honey pot, it's so tight that only half goes in initially..")
ShowMessageFace("",0,0,2,6)
ShowMessage("Hot and narrow, she pushes me into her all the way with a second try.")
ShowMessageFace("",0,0,2,7)
ShowMessage("The sudden burst of pleasure causes me to push my waist up into her.")
ShowMessageFace("youko_fc1",1,0,2,8)
ShowMessage("\\n<Kitsune>Do I feel good? I really hope so!\nI'll even let you shoot as much out into me as you want! Promise! ♪")
ShowMessageFace("",0,0,2,9)
ShowMessage("\\n<Luka>Aaaaa....")
ShowMessageFace("",0,0,2,10)
ShowMessage("Her small hole completely swallows me up.")
ShowMessage("She doesn't even have to move, her hole is so tight that her walls squeezing me is enough to make me go slack jawed. Occasionally I'm even stroked when her insides naturally clench on me.")
ShowMessageFace("",0,0,2,11)
ShowMessage("Making things even worse, her insides are slightly rough. Thousands of tiny nubs caress and rub my shaft, sending electric shocks of pleasure up my spine.")
ShowMessageFace("",0,0,2,12)
ShowMessage("That rough feeling on the sensitive underside of my penis feels so good that it crushes any hope I had of resisting.")
ShowMessageFace("",0,0,2,13)
ShowMessage("\\n<Luka>Faaa...")
ShowMessageFace("youko_fc1",1,0,2,14)
ShowMessage("\\n<Kitsune>Aha, you're feeling good, you're feeling good!\nDoes mating with me feel that good, really? I'm so happy! We can do this as long as you want!")
245(bytes(0x04,0x08,0x6f,0x3a,0x0d,0x52,0x50,0x47,0x3a,0x3a,0x42,0x47,0x53,0x08,0x3a,0x0a,0x40,0x6e,0x61,0x6d,0x65,0x49,0x22,0x1e,0x6d,0x6f,0x6e,0x5f,0x68,0x73,0x65,0x61,0x6e,0x30,0x34,0x5f,0x69,0x6e,0x6e,0x65,0x72,0x77,0x6f,0x72,0x6b,0x73,0x5f,0x61,0x34,0x06,0x3a,0x06,0x45,0x54,0x3a,0x0c,0x40,0x76,0x6f,0x6c,0x75,0x6d,0x65,0x69,0x55,0x3a,0x0b,0x40,0x70,0x69,0x74,0x63,0x68,0x69,0x69))
ShowMessageFace("",0,0,2,15)
ShowMessage("Looking pleased with herself, the Kitsune shakes her waist.")
ShowMessage("I'm roughly tossed about inside of her. She has a stranglehold on my cock, but the grip is so intoxicating that I find myself pushing up to meet her every time.")
ShowMessageFace("",0,0,2,17)
ShowMessage("\\n<Luka>Aaah... I'm going to come...")
ShowMessageFace("",0,0,2,18)
ShowMessage("The insides of her rough and tight pussy hold me captive, I'm not able to get away as I inch closer to a climax.")
ShowMessage("Not even in her for a minute, I feel miserable at already wanting to come.")
ShowMessageFace("youko_fc1",1,0,2,20)
ShowMessage("\\n<Kitsune>Haha, I can tell just by your cute expression, only a little more and you'll shoot out your white stuff!\nOk! Now come! For me!")
ShowMessageFace("",0,0,2,21)
ShowMessage("As the Kitsune laughs, she starts to violently grind her waist into me.")
ShowMessage("Such a tiny girl is forcing me to come...")
ShowMessageFace("",0,0,2,23)
ShowMessage("\\n<Luka>Aaaaa!")
RunCommonEvent(104)
PictureDisplay(5,"ev_youko_h2",0,0,0,0,100,100,255,0)
RunCommonEvent(105)
ShowMessageFace("",0,0,2,24)
ShowMessage("Unable to last even a minute, I feel humiliated as I explode in her vagina.")
ShowMessageFace("youko_fc1",1,0,2,25)
ShowMessage("\\n<Kitsune>Ahaha, you already let it out.\nComing so easily, what a pathetic hero! But don't worry, I'll be sure to use you properly...")
ShowMessageFace("youko_fc1",1,0,2,26)
ShowMessage("\\n<Kitsune>Here! I'll bully you even more!")
245(bytes(0x04,0x08,0x6f,0x3a,0x0d,0x52,0x50,0x47,0x3a,0x3a,0x42,0x47,0x53,0x08,0x3a,0x0a,0x40,0x6e,0x61,0x6d,0x65,0x49,0x22,0x1e,0x6d,0x6f,0x6e,0x5f,0x68,0x73,0x65,0x61,0x6e,0x30,0x38,0x5f,0x69,0x6e,0x6e,0x65,0x72,0x77,0x6f,0x72,0x6b,0x73,0x5f,0x61,0x38,0x06,0x3a,0x06,0x45,0x54,0x3a,0x0c,0x40,0x76,0x6f,0x6c,0x75,0x6d,0x65,0x69,0x55,0x3a,0x0b,0x40,0x70,0x69,0x74,0x63,0x68,0x69,0x69))
ShowMessageFace("",0,0,2,27)
ShowMessage("Laughing at me, the Kitsune starts grinding her waist against me again. Lewd slaps echo around us as her insides squelch and squirm around my cock.")
ShowMessage("Even though I just came, she's already trying to force me to another...")
ShowMessageFace("",0,0,2,28)
ShowMessage("Stuck in her tiny, rough pussy...")
ShowMessage("This little girl is furiously violating me...")
ShowMessageFace("",0,0,2,29)
ShowMessage("\\n<Luka>Stop! Ahhh!")
ShowMessageFace("youko_fc1",1,0,2,30)
ShowMessage("\\n<Kitsune>Ah... your semen tastes so good...\nLet out more, more!")
ShowMessageFace("",0,0,2,31)
ShowMessage("\\n<Luka>Auuu... If you move so much... Again...")
ShowMessageFace("",0,0,2,32)
ShowMessage("Stimulated by her rough vagina, I feel my power to escape fade.")
ShowMessage("My mind blanks as deep inside of her vagina, right at my tip, she somehow tightens around me.")
ShowMessageFace("",0,0,2,33)
ShowMessage("The pleasure from the increased pressure sends chills down my spine.")
ShowMessageFace("youko_fc1",1,0,2,34)
ShowMessage("\\n<Kitsune>Hehe... Come!")
ShowMessageFace("",0,0,2,35)
ShowMessage("Sweet friction shatters away my reason as her inhuman tightening grinds against my tip, I can barely even catch my breath.")
ShowMessage("Her movements destroy the last of my endurance.")
ShowMessageFace("",0,0,2,36)
ShowMessage("\\n<Luka>Aaaaahhh!")
RunCommonEvent(104)
PictureDisplay(5,"ev_youko_h3",0,0,0,0,100,100,255,0)
RunCommonEvent(105)
ShowMessageFace("",0,0,2,37)
ShowMessage("I've been forced to climax twice now inside of her.")
ShowMessage("For the second time, the proof of my submission to her shoots inside her pussy.")
ShowMessageFace("youko_fc1",1,0,2,38)
ShowMessage("\\n<Kitsune>Hahaha... Semen... Delicious...\nI really like you!")
ShowMessageFace("youko_fc1",1,0,2,39)
ShowMessage("\\n<Kitsune>Hey hey... Do you know how a Kitsune and a human get married?")
ShowMessageFace("",0,0,2,40)
ShowMessage("\\n<Luka>M...Marriage...?")
ShowMessageFace("youko_fc1",1,0,2,41)
ShowMessage("\\n<Kitsune>A Kitsune violates the human, and forces them to come inside her three times!\nOnce they do that, they're tied together and become a married couple. There's no going back...")
ShowMessageFace("youko_fc1",1,0,2,42)
ShowMessage("\\n<Kitsune>So far, you've pew pewed in me twice...\nJust one time left! Heehee. I'm so excited! ♪")
ShowMessageFace("",0,0,2,43)
ShowMessage("\\n<Luka>That... Marriage... Auuuu...")
ShowMessageFace("youko_fc1",1,0,2,44)
ShowMessage("\\n<Kitsune>I said I like you...\nDon't be mean, just be my husband already!")
ShowMessageFace("youko_fc1",1,0,2,45)
ShowMessage("\\n<Kitsune>I'll make you feel good every day...\nFrom morning till night, we'll mate all day! ♪")
ShowMessageFace("",0,0,2,46)
ShowMessage("\\n<Luka>That... No way... Ahhh!")
ShowMessageFace("",0,0,2,47)
ShowMessage("The Kitsune looks down at me as she starts to move her hips again.")
ShowMessage("Crushed in her tight pussy, I struggle helplessly.")
ShowMessageFace("",0,0,2,48)
ShowMessage("\\n<Luka>Auu... No...")
ShowMessageFace("youko_fc1",1,0,2,49)
ShowMessage("\\n<Kitsune>Come on, come on... Let's get married...\nEven if I have to force you to... I'll finish the ceremony and bind you to me...")
ShowMessageFace("",0,0,2,50)
ShowMessage("The Kitsune grinds her waist into me harder than before as she laughs. My waist is practically soaked in our combined fluids, I would feel shameful if it wasn't for how good it felt.")
ShowMessage("At this rate, I'll be forced to come in her a third time...")
ShowMessageFace("",0,0,2,51)
ShowMessage("\\n<Luka>Aaaahhh....")
ShowMessageFace("youko_fc1",1,0,2,52)
ShowMessage("\\n<Kitsune>Hahaha, can you endure it...?\n...Or are you going to become my husband?")
ShowMessageFace("",0,0,2,53)
ShowMessage("The Kitsune starts to move right and left as she continues to pump me.")
ShowMessageFace("",0,0,2,54)
ShowMessage("Her pussy conforms to my shape, sweetly caressing and stroking me to the edge, I never had a choice in the matter...")
ShowMessageFace("",0,0,2,55)
ShowMessage("I can't endure like this...")
ShowMessage("I'm going to come inside of her again...")
ShowMessageFace("",0,0,2,56)
ShowMessage("\\n<Luka>Auuu... No more...\nI'm coming again...!")
ShowMessageFace("youko_fc1",1,0,2,57)
ShowMessage("\\n<Kitsune>Yay! Be my husband!")
ShowMessageFace("",0,0,2,58)
ShowMessage("The Kitsune pushes down hard, forcing my tip all the way to the entrance of her womb.")
ShowMessage("Hitting her deepest point, the sudden stimulation forces me over the edge.")
ShowMessageFace("",0,0,2,59)
ShowMessage("\\n<Luka>Aaa! Ahhhh!")
RunCommonEvent(104)
PictureDisplay(5,"ev_youko_h4",0,0,0,0,100,100,255,0)
RunCommonEvent(105)
ShowMessageFace("",0,0,2,60)
ShowMessage("My mind goes pure white as I come inside of her a third time, shooting a large amount of semen into her womb.")
ShowMessageFace("youko_fc1",1,0,2,61)
ShowMessage("\\n<Kitsune>...Ehehe, you let out a lot.\nThe ceremony is over with that. We're married now! I'm so happy! ♪")
ShowMessageFace("youko_fc1",1,0,2,62)
ShowMessage("\\n<Kitsune>Let's celebrate with Tamamo, then start living together!")
ShowMessageFace("",0,0,2,63)
ShowMessage("The Kitsune's tails start to wag furiously.")
ShowMessage("Still stuck in her pussy, the wagging causes an intense tightening around me.")
ShowMessageFace("",0,0,2,64)
ShowMessage("\\n<Luka>Aaa... That feels good...")
ShowMessageFace("youko_fc1",1,0,2,65)
ShowMessage("\\n<Kitsune>Ehehe... We'll be together forever now!\nWe'll mate every day, and have lots of cute babies!")
ShowMessageFace("",0,0,2,66)
ShowMessage("The Kitsune shakes her hips as she talks excitedly. Even when she isn't trying, it feels too good to hold back.")
ShowMessageFace("",0,0,2,67)
ShowMessage("\\n<Luka>Auu... Coming again...")
RunCommonEvent(104)
RunCommonEvent(105)
ShowMessageFace("",0,0,2,68)
ShowMessage("I continue mating with my new wife, the Kitsune, as my consciousness fades.")
ShowMessageFace("",0,0,2,69)
ShowMessage("Stuck inside of her tiny pussy, everything I shoot out is sucked up by her womb.")
221()
PictureClear(5)
246(2)
ShowMessageFace("",0,0,2,70)
ShowMessage("Now her husband, I'm taken back to her village.")
ShowMessageFace("",0,0,2,71)
ShowMessage("At first, all I tried to do was look for a chance to run away.")
ShowMessage("However, I slowly started to become happy living there.")
ShowMessageFace("",0,0,2,72)
ShowMessage("Thus, I spent the rest of my life with my cute wife.")
DefineLabel("反省会")
ShowMessageFace("",0,0,2,73)
ShowMessage("............")
221()
242(1)
Wait(120)
355("memory_interruption")
ShowMessageFace("",0,0,2,74)
ShowMessage("You hear Ilias' voice calling out to you...")
ShowMessage("Receive her evaluation?")
ShowChoices(strings("Receive Evaluation","Change Difficulty","Reincarnate"),3)
IfPlayerPicksChoice(0,null)
 241(bytes(0x04,0x08,0x6f,0x3a,0x0d,0x52,0x50,0x47,0x3a,0x3a,0x42,0x47,0x4d,0x08,0x3a,0x0a,0x40,0x6e,0x61,0x6d,0x65,0x49,0x22,0x0a,0x69,0x72,0x69,0x61,0x73,0x06,0x3a,0x06,0x45,0x54,0x3a,0x0c,0x40,0x76,0x6f,0x6c,0x75,0x6d,0x65,0x69,0x5f,0x3a,0x0b,0x40,0x70,0x69,0x74,0x63,0x68,0x69,0x6e))
 PictureDisplay(1,"bg001",0,0,0,0,100,100,255,0)
 222()
 PictureDisplay(5,"80_iriasu_st04",0,0,0,0,100,100,0,0)
 PictureMove(5,null,0,0,0,0,100,100,255,0,30,true)
 ShowMessageFace("iriasu_fc1",3,0,2,75)
 ShowMessage("\\n<Ilias>Violated by such a weak little fox... \nHave you already lost the will of a Hero?")
 PictureDisplay(5,"80_iriasu_st01",0,0,0,0,100,100,255,0)
 ShowMessageFace("iriasu_fc1",0,0,2,76)
 ShowMessage("\\n<Ilias>The Silver Kitsune is a fox monster, she uses a variety of Earth skills. \nBe careful not to have anyone weak to earth in your party.")
 ShowMessageFace("iriasu_fc1",0,0,2,77)
 ShowMessage("\\n<Ilias>She is, like all other Kitsunes, weak against the Wind element. \nWhile they are weak to Wind they're strong against Earth.")
 ShowMessageFace("iriasu_fc1",0,0,2,78)
 ShowMessage("\\n<Ilias>The may appear alone or with others of their kind. \nFight them however you wish.")
 ShowMessageFace("iriasu_fc1",0,0,2,79)
 ShowMessage("\\n<Ilias>Silence is effective and will stop their Earth elemental attacks. \nThey're also vulnerable to Bind among other status ailments.")
 ShowMessageFace("iriasu_fc1",0,0,2,80)
 ShowMessage("\\n<Ilias>It is very similar to the other Kitsune you encounter in that same place. \nThe silver variant seems to be a tiny bit better with physical attacks.")
 PictureDisplay(5,"80_iriasu_st02",0,0,0,0,100,100,255,0)
 ShowMessageFace("iriasu_fc1",1,0,2,81)
 ShowMessage("\\n<Ilias>Now go, oh brave Luka.\nNever let such a tiny fox beat you again.")
 242(1)
 221()
 PictureClear(5)
 PictureClear(1)
 Wait(60)
 0()
IfPlayerPicksChoice(1,null)
 ShowMessageFace("",0,0,2,82)
 ShowMessage("Please choose a difficulty level.")
 RunCommonEvent(110)
 0()
IfPlayerPicksChoice(2,null)
 0()
404()
RunCommonEvent(3000)
0()
